{
    "m_SGVersion": 3,
    "m_Type": "UnityEditor.ShaderGraph.GraphData",
    "m_ObjectId": "796f17d0e64e4de0b72f1c91b8604a60",
    "m_Properties": [
        {
            "m_Id": "de6b59f2b8a840f49c38320b7280bdad"
        },
        {
            "m_Id": "4a5ebc189e6d4fa59143f18f061919e3"
        },
        {
            "m_Id": "3d33666c0a8941098ba757c7da36b103"
        },
        {
            "m_Id": "d45aad65e0354836a0816bf769ce67e0"
        },
        {
            "m_Id": "9408de8a80d54fd8b7b73b7f7439af20"
        },
        {
            "m_Id": "463845cb9101490e8480a6fb5707c8b1"
        },
        {
            "m_Id": "9132ed8d8d894b9dadf6d4505888100b"
        },
        {
            "m_Id": "9686ee8f011942f28b1f31b246f21e3f"
        },
        {
            "m_Id": "ad4ac8670ce64167a3f3674f7635eed7"
        },
        {
            "m_Id": "239e5f8ce6ef4f27b5d48bbf31147f70"
        }
    ],
    "m_Keywords": [],
    "m_Dropdowns": [],
    "m_CategoryData": [
        {
            "m_Id": "5971ddf4d50c4f40b064002648ca6b54"
        }
    ],
    "m_Nodes": [
        {
            "m_Id": "ebcbfdbb378d44018719e85506e49bd6"
        },
        {
            "m_Id": "c858562e8bcc449bb2f19e2133b1fa69"
        },
        {
            "m_Id": "ce6aec81df7e4d0b9ada89778fb68f00"
        },
        {
            "m_Id": "6e73670964da4eca8afae546b1621337"
        },
        {
            "m_Id": "a977284e37c5436dad10730943725ff7"
        },
        {
            "m_Id": "e7c44638a49441d58a5eab71f1f614f2"
        },
        {
            "m_Id": "c73f616e010a42b589e1aac7bca0b3cf"
        },
        {
            "m_Id": "53907162f33444339908123b2c8b0d36"
        },
        {
            "m_Id": "e2467233976d462cbe341fb440d9b83d"
        },
        {
            "m_Id": "b0743b3085614d66b85f80addca47d71"
        },
        {
            "m_Id": "12250ecef0fe46d68d4c2c9e8a5d0f12"
        },
        {
            "m_Id": "b85d7fb909634e31ae4d9e74e5a631cb"
        },
        {
            "m_Id": "ab4d8b967b714c568583b2e09b868801"
        },
        {
            "m_Id": "6520458bedac42359227c3ed8a00428b"
        },
        {
            "m_Id": "6dc59ca50b134545b30b9b1d1b7209fd"
        },
        {
            "m_Id": "3b9133ff883b4f44aa1eacf17c22d629"
        },
        {
            "m_Id": "5e76174086334d41af76c136e9c5f34a"
        },
        {
            "m_Id": "6e44730a38934291bec68c2d6c8d2549"
        },
        {
            "m_Id": "5e618d4a7e224da992c23983697d997a"
        },
        {
            "m_Id": "68284a3dc0194e59873830d678820e3b"
        },
        {
            "m_Id": "8b8dd52321f849a180db5d53c8eaeee6"
        },
        {
            "m_Id": "99ce200fcecd40da911865436615778e"
        },
        {
            "m_Id": "3f9830cece1d4d01959914c6f2e38265"
        },
        {
            "m_Id": "d6f895d0552042adb0dc082a06bd6a0e"
        },
        {
            "m_Id": "07a144348d9642de8673b8782d1c860f"
        },
        {
            "m_Id": "85d9f6b176a344959b6443c3fd4161cf"
        },
        {
            "m_Id": "9939035da0a2462fa212a46751d600e3"
        }
    ],
    "m_GroupDatas": [],
    "m_StickyNoteDatas": [
        {
            "m_Id": "ab803ddd6e6d48a5857aa031fb07fade"
        },
        {
            "m_Id": "688102907ae64832a56512797224c24c"
        },
        {
            "m_Id": "92bb79f1858a4f3db2ae6e9269282e27"
        },
        {
            "m_Id": "c7ae4a4407c44c73ab53542d1d870588"
        },
        {
            "m_Id": "24ac45bd30a84348bf92763d6740c46e"
        }
    ],
    "m_Edges": [
        {
            "m_OutputSlot": {
                "m_Node": {
                    "m_Id": "07a144348d9642de8673b8782d1c860f"
                },
                "m_SlotId": 0
            },
            "m_InputSlot": {
                "m_Node": {
                    "m_Id": "53907162f33444339908123b2c8b0d36"
                },
                "m_SlotId": 13
            }
        },
        {
            "m_OutputSlot": {
                "m_Node": {
                    "m_Id": "12250ecef0fe46d68d4c2c9e8a5d0f12"
                },
                "m_SlotId": 0
            },
            "m_InputSlot": {
                "m_Node": {
                    "m_Id": "53907162f33444339908123b2c8b0d36"
                },
                "m_SlotId": 6
            }
        },
        {
            "m_OutputSlot": {
                "m_Node": {
                    "m_Id": "3b9133ff883b4f44aa1eacf17c22d629"
                },
                "m_SlotId": 1
            },
            "m_InputSlot": {
                "m_Node": {
                    "m_Id": "e2467233976d462cbe341fb440d9b83d"
                },
                "m_SlotId": 0
            }
        },
        {
            "m_OutputSlot": {
                "m_Node": {
                    "m_Id": "3f9830cece1d4d01959914c6f2e38265"
                },
                "m_SlotId": 0
            },
            "m_InputSlot": {
                "m_Node": {
                    "m_Id": "53907162f33444339908123b2c8b0d36"
                },
                "m_SlotId": 10
            }
        },
        {
            "m_OutputSlot": {
                "m_Node": {
                    "m_Id": "53907162f33444339908123b2c8b0d36"
                },
                "m_SlotId": 1
            },
            "m_InputSlot": {
                "m_Node": {
                    "m_Id": "6e73670964da4eca8afae546b1621337"
                },
                "m_SlotId": 0
            }
        },
        {
            "m_OutputSlot": {
                "m_Node": {
                    "m_Id": "5e618d4a7e224da992c23983697d997a"
                },
                "m_SlotId": 0
            },
            "m_InputSlot": {
                "m_Node": {
                    "m_Id": "68284a3dc0194e59873830d678820e3b"
                },
                "m_SlotId": 1
            }
        },
        {
            "m_OutputSlot": {
                "m_Node": {
                    "m_Id": "5e76174086334d41af76c136e9c5f34a"
                },
                "m_SlotId": 0
            },
            "m_InputSlot": {
                "m_Node": {
                    "m_Id": "53907162f33444339908123b2c8b0d36"
                },
                "m_SlotId": 9
            }
        },
        {
            "m_OutputSlot": {
                "m_Node": {
                    "m_Id": "6520458bedac42359227c3ed8a00428b"
                },
                "m_SlotId": 0
            },
            "m_InputSlot": {
                "m_Node": {
                    "m_Id": "53907162f33444339908123b2c8b0d36"
                },
                "m_SlotId": 7
            }
        },
        {
            "m_OutputSlot": {
                "m_Node": {
                    "m_Id": "68284a3dc0194e59873830d678820e3b"
                },
                "m_SlotId": 4
            },
            "m_InputSlot": {
                "m_Node": {
                    "m_Id": "8b8dd52321f849a180db5d53c8eaeee6"
                },
                "m_SlotId": 1
            }
        },
        {
            "m_OutputSlot": {
                "m_Node": {
                    "m_Id": "68284a3dc0194e59873830d678820e3b"
                },
                "m_SlotId": 5
            },
            "m_InputSlot": {
                "m_Node": {
                    "m_Id": "8b8dd52321f849a180db5d53c8eaeee6"
                },
                "m_SlotId": 2
            }
        },
        {
            "m_OutputSlot": {
                "m_Node": {
                    "m_Id": "68284a3dc0194e59873830d678820e3b"
                },
                "m_SlotId": 6
            },
            "m_InputSlot": {
                "m_Node": {
                    "m_Id": "8b8dd52321f849a180db5d53c8eaeee6"
                },
                "m_SlotId": 3
            }
        },
        {
            "m_OutputSlot": {
                "m_Node": {
                    "m_Id": "6dc59ca50b134545b30b9b1d1b7209fd"
                },
                "m_SlotId": 2
            },
            "m_InputSlot": {
                "m_Node": {
                    "m_Id": "3b9133ff883b4f44aa1eacf17c22d629"
                },
                "m_SlotId": 0
            }
        },
        {
            "m_OutputSlot": {
                "m_Node": {
                    "m_Id": "6e44730a38934291bec68c2d6c8d2549"
                },
                "m_SlotId": 0
            },
            "m_InputSlot": {
                "m_Node": {
                    "m_Id": "53907162f33444339908123b2c8b0d36"
                },
                "m_SlotId": 8
            }
        },
        {
            "m_OutputSlot": {
                "m_Node": {
                    "m_Id": "85d9f6b176a344959b6443c3fd4161cf"
                },
                "m_SlotId": 0
            },
            "m_InputSlot": {
                "m_Node": {
                    "m_Id": "e7c44638a49441d58a5eab71f1f614f2"
                },
                "m_SlotId": 3
            }
        },
        {
            "m_OutputSlot": {
                "m_Node": {
                    "m_Id": "8b8dd52321f849a180db5d53c8eaeee6"
                },
                "m_SlotId": 0
            },
            "m_InputSlot": {
                "m_Node": {
                    "m_Id": "e2467233976d462cbe341fb440d9b83d"
                },
                "m_SlotId": 1
            }
        },
        {
            "m_OutputSlot": {
                "m_Node": {
                    "m_Id": "9939035da0a2462fa212a46751d600e3"
                },
                "m_SlotId": 0
            },
            "m_InputSlot": {
                "m_Node": {
                    "m_Id": "53907162f33444339908123b2c8b0d36"
                },
                "m_SlotId": 14
            }
        },
        {
            "m_OutputSlot": {
                "m_Node": {
                    "m_Id": "99ce200fcecd40da911865436615778e"
                },
                "m_SlotId": 0
            },
            "m_InputSlot": {
                "m_Node": {
                    "m_Id": "53907162f33444339908123b2c8b0d36"
                },
                "m_SlotId": 4
            }
        },
        {
            "m_OutputSlot": {
                "m_Node": {
                    "m_Id": "a977284e37c5436dad10730943725ff7"
                },
                "m_SlotId": 0
            },
            "m_InputSlot": {
                "m_Node": {
                    "m_Id": "e7c44638a49441d58a5eab71f1f614f2"
                },
                "m_SlotId": 1
            }
        },
        {
            "m_OutputSlot": {
                "m_Node": {
                    "m_Id": "ab4d8b967b714c568583b2e09b868801"
                },
                "m_SlotId": 4
            },
            "m_InputSlot": {
                "m_Node": {
                    "m_Id": "e7c44638a49441d58a5eab71f1f614f2"
                },
                "m_SlotId": 2
            }
        },
        {
            "m_OutputSlot": {
                "m_Node": {
                    "m_Id": "b0743b3085614d66b85f80addca47d71"
                },
                "m_SlotId": 0
            },
            "m_InputSlot": {
                "m_Node": {
                    "m_Id": "6dc59ca50b134545b30b9b1d1b7209fd"
                },
                "m_SlotId": 1
            }
        },
        {
            "m_OutputSlot": {
                "m_Node": {
                    "m_Id": "b85d7fb909634e31ae4d9e74e5a631cb"
                },
                "m_SlotId": 0
            },
            "m_InputSlot": {
                "m_Node": {
                    "m_Id": "ab4d8b967b714c568583b2e09b868801"
                },
                "m_SlotId": 1
            }
        },
        {
            "m_OutputSlot": {
                "m_Node": {
                    "m_Id": "d6f895d0552042adb0dc082a06bd6a0e"
                },
                "m_SlotId": 0
            },
            "m_InputSlot": {
                "m_Node": {
                    "m_Id": "53907162f33444339908123b2c8b0d36"
                },
                "m_SlotId": 11
            }
        },
        {
            "m_OutputSlot": {
                "m_Node": {
                    "m_Id": "e2467233976d462cbe341fb440d9b83d"
                },
                "m_SlotId": 2
            },
            "m_InputSlot": {
                "m_Node": {
                    "m_Id": "53907162f33444339908123b2c8b0d36"
                },
                "m_SlotId": 2
            }
        },
        {
            "m_OutputSlot": {
                "m_Node": {
                    "m_Id": "e7c44638a49441d58a5eab71f1f614f2"
                },
                "m_SlotId": 0
            },
            "m_InputSlot": {
                "m_Node": {
                    "m_Id": "53907162f33444339908123b2c8b0d36"
                },
                "m_SlotId": 0
            }
        },
        {
            "m_OutputSlot": {
                "m_Node": {
                    "m_Id": "e7c44638a49441d58a5eab71f1f614f2"
                },
                "m_SlotId": 0
            },
            "m_InputSlot": {
                "m_Node": {
                    "m_Id": "6dc59ca50b134545b30b9b1d1b7209fd"
                },
                "m_SlotId": 0
            }
        }
    ],
    "m_VertexContext": {
        "m_Position": {
            "x": 37.000038146972659,
            "y": -439.0
        },
        "m_Blocks": [
            {
                "m_Id": "ebcbfdbb378d44018719e85506e49bd6"
            },
            {
                "m_Id": "c858562e8bcc449bb2f19e2133b1fa69"
            },
            {
                "m_Id": "ce6aec81df7e4d0b9ada89778fb68f00"
            }
        ]
    },
    "m_FragmentContext": {
        "m_Position": {
            "x": 37.000038146972659,
            "y": -239.0
        },
        "m_Blocks": [
            {
                "m_Id": "6e73670964da4eca8afae546b1621337"
            },
            {
                "m_Id": "c73f616e010a42b589e1aac7bca0b3cf"
            }
        ]
    },
    "m_PreviewData": {
        "serializedMesh": {
            "m_SerializedMesh": "{\"mesh\":{\"instanceID\":0}}",
            "m_Guid": ""
        },
        "preventRotation": false
    },
    "m_Path": "Shader Graphs",
    "m_GraphPrecision": 1,
    "m_PreviewMode": 2,
    "m_OutputNode": {
        "m_Id": ""
    },
    "m_ActiveTargets": [
        {
            "m_Id": "d43aec7987364dcb804a8772f22d407f"
        }
    ]
}

{
    "m_SGVersion": 0,
    "m_Type": "UnityEditor.ShaderGraph.Matrix4MaterialSlot",
    "m_ObjectId": "0552058f8af9405884e0115f0f5f2a52",
    "m_Id": 0,
    "m_DisplayName": "_ViewProjInv",
    "m_SlotType": 1,
    "m_Hidden": false,
    "m_ShaderOutputName": "Out",
    "m_StageCapability": 3,
    "m_Value": {
        "e00": 1.0,
        "e01": 0.0,
        "e02": 0.0,
        "e03": 0.0,
        "e10": 0.0,
        "e11": 1.0,
        "e12": 0.0,
        "e13": 0.0,
        "e20": 0.0,
        "e21": 0.0,
        "e22": 1.0,
        "e23": 0.0,
        "e30": 0.0,
        "e31": 0.0,
        "e32": 0.0,
        "e33": 1.0
    },
    "m_DefaultValue": {
        "e00": 1.0,
        "e01": 0.0,
        "e02": 0.0,
        "e03": 0.0,
        "e10": 0.0,
        "e11": 1.0,
        "e12": 0.0,
        "e13": 0.0,
        "e20": 0.0,
        "e21": 0.0,
        "e22": 1.0,
        "e23": 0.0,
        "e30": 0.0,
        "e31": 0.0,
        "e32": 0.0,
        "e33": 1.0
    }
}

{
    "m_SGVersion": 0,
    "m_Type": "UnityEditor.ShaderGraph.Matrix4MaterialSlot",
    "m_ObjectId": "06cabbb5de074b4b8d7460c209498a34",
    "m_Id": 0,
    "m_DisplayName": "_ViewProj",
    "m_SlotType": 1,
    "m_Hidden": false,
    "m_ShaderOutputName": "Out",
    "m_StageCapability": 3,
    "m_Value": {
        "e00": 1.0,
        "e01": 0.0,
        "e02": 0.0,
        "e03": 0.0,
        "e10": 0.0,
        "e11": 1.0,
        "e12": 0.0,
        "e13": 0.0,
        "e20": 0.0,
        "e21": 0.0,
        "e22": 1.0,
        "e23": 0.0,
        "e30": 0.0,
        "e31": 0.0,
        "e32": 0.0,
        "e33": 1.0
    },
    "m_DefaultValue": {
        "e00": 1.0,
        "e01": 0.0,
        "e02": 0.0,
        "e03": 0.0,
        "e10": 0.0,
        "e11": 1.0,
        "e12": 0.0,
        "e13": 0.0,
        "e20": 0.0,
        "e21": 0.0,
        "e22": 1.0,
        "e23": 0.0,
        "e30": 0.0,
        "e31": 0.0,
        "e32": 0.0,
        "e33": 1.0
    }
}

{
    "m_SGVersion": 0,
    "m_Type": "UnityEditor.ShaderGraph.PropertyNode",
    "m_ObjectId": "07a144348d9642de8673b8782d1c860f",
    "m_Group": {
        "m_Id": ""
    },
    "m_Name": "Property",
    "m_DrawState": {
        "m_Expanded": true,
        "m_Position": {
            "serializedVersion": "2",
            "x": -688.0,
            "y": -53.000003814697269,
            "width": 109.0,
            "height": 34.0
        }
    },
    "m_Slots": [
        {
            "m_Id": "e88d3343554b4b8eb33d304a06d71747"
        }
    ],
    "synonyms": [],
    "m_Precision": 0,
    "m_PreviewExpanded": true,
    "m_PreviewMode": 0,
    "m_CustomColors": {
        "m_SerializableColors": []
    },
    "m_Property": {
        "m_Id": "ad4ac8670ce64167a3f3674f7635eed7"
    }
}

{
    "m_SGVersion": 0,
    "m_Type": "UnityEditor.ShaderGraph.DynamicVectorMaterialSlot",
    "m_ObjectId": "0ca610034cee4d388b59508a7654cf55",
    "m_Id": 2,
    "m_DisplayName": "Out",
    "m_SlotType": 1,
    "m_Hidden": false,
    "m_ShaderOutputName": "Out",
    "m_StageCapability": 3,
    "m_Value": {
        "x": 0.0,
        "y": 0.0,
        "z": 0.0,
        "w": 0.0
    },
    "m_DefaultValue": {
        "x": 0.0,
        "y": 0.0,
        "z": 0.0,
        "w": 0.0
    }
}

{
    "m_SGVersion": 0,
    "m_Type": "UnityEditor.ShaderGraph.PropertyNode",
    "m_ObjectId": "12250ecef0fe46d68d4c2c9e8a5d0f12",
    "m_Group": {
        "m_Id": ""
    },
    "m_Name": "Property",
    "m_DrawState": {
        "m_Expanded": true,
        "m_Position": {
            "serializedVersion": "2",
            "x": -769.0,
            "y": 48.99999237060547,
            "width": 191.0,
            "height": 34.0
        }
    },
    "m_Slots": [
        {
            "m_Id": "36cc338d8cea4f7795cbf9268c7c4e36"
        }
    ],
    "synonyms": [],
    "m_Precision": 0,
    "m_PreviewExpanded": false,
    "m_PreviewMode": 0,
    "m_CustomColors": {
        "m_SerializableColors": []
    },
    "m_Property": {
        "m_Id": "4a5ebc189e6d4fa59143f18f061919e3"
    }
}

{
    "m_SGVersion": 0,
    "m_Type": "UnityEditor.ShaderGraph.Vector3MaterialSlot",
    "m_ObjectId": "1393ebda282a49c699f9ac5b288d2f90",
    "m_Id": 1,
    "m_DisplayName": "Direction",
    "m_SlotType": 1,
    "m_Hidden": false,
    "m_ShaderOutputName": "Direction",
    "m_StageCapability": 3,
    "m_Value": {
        "x": 0.0,
        "y": 0.0,
        "z": 0.0
    },
    "m_DefaultValue": {
        "x": 0.0,
        "y": 0.0,
        "z": 0.0
    },
    "m_Labels": []
}

{
    "m_SGVersion": 0,
    "m_Type": "UnityEditor.ShaderGraph.Vector1MaterialSlot",
    "m_ObjectId": "17907fd50392438daa6b3e6423dd6c7c",
    "m_Id": 4,
    "m_DisplayName": "Far Plane",
    "m_SlotType": 1,
    "m_Hidden": false,
    "m_ShaderOutputName": "Far Plane",
    "m_StageCapability": 3,
    "m_Value": 1.0,
    "m_DefaultValue": 1.0,
    "m_Labels": []
}

{
    "m_SGVersion": 0,
    "m_Type": "UnityEditor.ShaderGraph.Texture2DInputMaterialSlot",
    "m_ObjectId": "1c2fbfd8b3cd4f15a71bdd5b858f4e20",
    "m_Id": 1,
    "m_DisplayName": "Texture",
    "m_SlotType": 0,
    "m_Hidden": false,
    "m_ShaderOutputName": "Texture",
    "m_StageCapability": 3,
    "m_BareResource": false,
    "m_Texture": {
        "m_SerializedTexture": "{\"texture\":{\"instanceID\":0}}",
        "m_Guid": ""
    },
    "m_DefaultType": 3
}

{
    "m_SGVersion": 0,
    "m_Type": "UnityEditor.ShaderGraph.Vector1MaterialSlot",
    "m_ObjectId": "1c7987b2a2a5462898899eb969d057c9",
    "m_Id": 0,
    "m_DisplayName": "MaxRayLength",
    "m_SlotType": 1,
    "m_Hidden": false,
    "m_ShaderOutputName": "Out",
    "m_StageCapability": 3,
    "m_Value": 0.0,
    "m_DefaultValue": 0.0,
    "m_Labels": []
}

{
    "m_SGVersion": 0,
    "m_Type": "UnityEditor.ShaderGraph.Texture2DInputMaterialSlot",
    "m_ObjectId": "1cce86df264b4085a12411a22ebb748b",
    "m_Id": 6,
    "m_DisplayName": "DepthTexture",
    "m_SlotType": 0,
    "m_Hidden": false,
    "m_ShaderOutputName": "DepthTexture",
    "m_StageCapability": 3,
    "m_BareResource": false,
    "m_Texture": {
        "m_SerializedTexture": "{\"texture\":{\"instanceID\":0}}",
        "m_Guid": ""
    },
    "m_DefaultType": 0
}

{
    "m_SGVersion": 0,
    "m_Type": "UnityEditor.ShaderGraph.DynamicVectorMaterialSlot",
    "m_ObjectId": "1d17ed91783647b78ad366c194630cf0",
    "m_Id": 0,
    "m_DisplayName": "A",
    "m_SlotType": 0,
    "m_Hidden": false,
    "m_ShaderOutputName": "A",
    "m_StageCapability": 3,
    "m_Value": {
        "x": 1.0,
        "y": 1.0,
        "z": 1.0,
        "w": 1.0
    },
    "m_DefaultValue": {
        "x": 0.0,
        "y": 0.0,
        "z": 0.0,
        "w": 0.0
    }
}

{
    "m_SGVersion": 0,
    "m_Type": "UnityEditor.ShaderGraph.Vector1MaterialSlot",
    "m_ObjectId": "21b6f6bccd604c33bdbdcb53f0aaa0a5",
    "m_Id": 0,
    "m_DisplayName": "MaxMarchingCount",
    "m_SlotType": 1,
    "m_Hidden": false,
    "m_ShaderOutputName": "Out",
    "m_StageCapability": 3,
    "m_Value": 0.0,
    "m_DefaultValue": 0.0,
    "m_Labels": []
}

{
    "m_SGVersion": 1,
    "m_Type": "UnityEditor.ShaderGraph.Internal.Vector1ShaderProperty",
    "m_ObjectId": "239e5f8ce6ef4f27b5d48bbf31147f70",
    "m_Guid": {
        "m_GuidSerialized": "286d8b7e-629a-4f4e-9957-a705e08fccc8"
    },
    "m_Name": "MaxCameraDistance",
    "m_DefaultRefNameVersion": 1,
    "m_RefNameGeneratedByDisplayName": "MaxCameraDistance",
    "m_DefaultReferenceName": "_MaxCameraDistance",
    "m_OverrideReferenceName": "",
    "m_GeneratePropertyBlock": true,
    "m_UseCustomSlotLabel": false,
    "m_CustomSlotLabel": "",
    "m_Precision": 0,
    "overrideHLSLDeclaration": false,
    "hlslDeclarationOverride": 0,
    "m_Hidden": false,
    "m_Value": 0.0,
    "m_FloatType": 0,
    "m_RangeValues": {
        "x": 0.0,
        "y": 1.0
    }
}

{
    "m_SGVersion": 0,
    "m_Type": "UnityEditor.ShaderGraph.Texture2DMaterialSlot",
    "m_ObjectId": "24a2ab3ce398480d8a4cc28b24a9cae7",
    "m_Id": 0,
    "m_DisplayName": "_CameraOpaqueTexture",
    "m_SlotType": 1,
    "m_Hidden": false,
    "m_ShaderOutputName": "Out",
    "m_StageCapability": 3,
    "m_BareResource": false
}

{
    "m_SGVersion": 0,
    "m_Type": "UnityEditor.ShaderGraph.StickyNoteData",
    "m_ObjectId": "24ac45bd30a84348bf92763d6740c46e",
    "m_Title": "カメラからの視線ベクトル",
    "m_Content": "Write something here",
    "m_TextSize": 0,
    "m_Theme": 1,
    "m_Position": {
        "serializedVersion": "2",
        "x": -1609.0,
        "y": -117.0,
        "width": 500.0,
        "height": 356.0
    },
    "m_Group": {
        "m_Id": ""
    }
}

{
    "m_SGVersion": 0,
    "m_Type": "UnityEditor.ShaderGraph.Vector1MaterialSlot",
    "m_ObjectId": "29cc183fc8c946379f631aa26edcb8cb",
    "m_Id": 4,
    "m_DisplayName": "maxLoop",
    "m_SlotType": 0,
    "m_Hidden": false,
    "m_ShaderOutputName": "maxLoop",
    "m_StageCapability": 3,
    "m_Value": 10.0,
    "m_DefaultValue": 0.0,
    "m_Labels": []
}

{
    "m_SGVersion": 0,
    "m_Type": "UnityEditor.ShaderGraph.UVMaterialSlot",
    "m_ObjectId": "2bfff92b2bea45bd8d13ad0efd489d40",
    "m_Id": 2,
    "m_DisplayName": "UV",
    "m_SlotType": 0,
    "m_Hidden": false,
    "m_ShaderOutputName": "UV",
    "m_StageCapability": 3,
    "m_Value": {
        "x": 0.0,
        "y": 0.0
    },
    "m_DefaultValue": {
        "x": 0.0,
        "y": 0.0
    },
    "m_Labels": [],
    "m_Channel": 0
}

{
    "m_SGVersion": 0,
    "m_Type": "UnityEditor.ShaderGraph.Matrix4MaterialSlot",
    "m_ObjectId": "2d7ad844d54d46a19dff3b0c4cd1f679",
    "m_Id": 0,
    "m_DisplayName": "_ViewProjInv",
    "m_SlotType": 1,
    "m_Hidden": false,
    "m_ShaderOutputName": "Out",
    "m_StageCapability": 3,
    "m_Value": {
        "e00": 1.0,
        "e01": 0.0,
        "e02": 0.0,
        "e03": 0.0,
        "e10": 0.0,
        "e11": 1.0,
        "e12": 0.0,
        "e13": 0.0,
        "e20": 0.0,
        "e21": 0.0,
        "e22": 1.0,
        "e23": 0.0,
        "e30": 0.0,
        "e31": 0.0,
        "e32": 0.0,
        "e33": 1.0
    },
    "m_DefaultValue": {
        "e00": 1.0,
        "e01": 0.0,
        "e02": 0.0,
        "e03": 0.0,
        "e10": 0.0,
        "e11": 1.0,
        "e12": 0.0,
        "e13": 0.0,
        "e20": 0.0,
        "e21": 0.0,
        "e22": 1.0,
        "e23": 0.0,
        "e30": 0.0,
        "e31": 0.0,
        "e32": 0.0,
        "e33": 1.0
    }
}

{
    "m_SGVersion": 0,
    "m_Type": "UnityEditor.ShaderGraph.Vector1MaterialSlot",
    "m_ObjectId": "2e6c9962e5904821b983817d2fc12cff",
    "m_Id": 2,
    "m_DisplayName": "depth",
    "m_SlotType": 0,
    "m_Hidden": false,
    "m_ShaderOutputName": "depth",
    "m_StageCapability": 3,
    "m_Value": 0.0,
    "m_DefaultValue": 0.0,
    "m_Labels": []
}

{
    "m_SGVersion": 0,
    "m_Type": "UnityEditor.ShaderGraph.Texture2DMaterialSlot",
    "m_ObjectId": "36cc338d8cea4f7795cbf9268c7c4e36",
    "m_Id": 0,
    "m_DisplayName": "_CameraDepthTexture",
    "m_SlotType": 1,
    "m_Hidden": false,
    "m_ShaderOutputName": "Out",
    "m_StageCapability": 3,
    "m_BareResource": false
}

{
    "m_SGVersion": 0,
    "m_Type": "UnityEditor.ShaderGraph.Vector4MaterialSlot",
    "m_ObjectId": "382c21f9130d4b5fa23ec3f61fd79ba3",
    "m_Id": 0,
    "m_DisplayName": "Out",
    "m_SlotType": 1,
    "m_Hidden": false,
    "m_ShaderOutputName": "Out",
    "m_StageCapability": 3,
    "m_Value": {
        "x": 0.0,
        "y": 0.0,
        "z": 0.0,
        "w": 0.0
    },
    "m_DefaultValue": {
        "x": 0.0,
        "y": 0.0,
        "z": 0.0,
        "w": 0.0
    },
    "m_Labels": []
}

{
    "m_SGVersion": 0,
    "m_Type": "UnityEditor.Rendering.Universal.ShaderGraph.UniversalSpriteUnlitSubTarget",
    "m_ObjectId": "38d8118ba8f749e2ae6dcc6f3976cc88"
}

{
    "m_SGVersion": 0,
    "m_Type": "UnityEditor.ShaderGraph.NormalizeNode",
    "m_ObjectId": "3b9133ff883b4f44aa1eacf17c22d629",
    "m_Group": {
        "m_Id": ""
    },
    "m_Name": "Normalize",
    "m_DrawState": {
        "m_Expanded": true,
        "m_Position": {
            "serializedVersion": "2",
            "x": -1284.0,
            "y": -72.0,
            "width": 132.0,
            "height": 94.0
        }
    },
    "m_Slots": [
        {
            "m_Id": "5321a2f549da4de89e07859b17fc7b93"
        },
        {
            "m_Id": "f3faa912b6704c1fb9d6d42e2c8b51c2"
        }
    ],
    "synonyms": [],
    "m_Precision": 0,
    "m_PreviewExpanded": false,
    "m_PreviewMode": 0,
    "m_CustomColors": {
        "m_SerializableColors": []
    }
}

{
    "m_SGVersion": 0,
    "m_Type": "UnityEditor.ShaderGraph.Internal.Texture2DShaderProperty",
    "m_ObjectId": "3d33666c0a8941098ba757c7da36b103",
    "m_Guid": {
        "m_GuidSerialized": "c40bbd20-481d-4d9f-9cbe-a286ac194326"
    },
    "m_Name": "_CameraOpaqueTexture",
    "m_DefaultRefNameVersion": 1,
    "m_RefNameGeneratedByDisplayName": "_CameraOpaqueTexture",
    "m_DefaultReferenceName": "_CameraOpaqueTexture",
    "m_OverrideReferenceName": "_CameraOpaqueTexture",
    "m_GeneratePropertyBlock": false,
    "m_UseCustomSlotLabel": false,
    "m_CustomSlotLabel": "",
    "m_Precision": 0,
    "overrideHLSLDeclaration": false,
    "hlslDeclarationOverride": 2,
    "m_Hidden": false,
    "m_Value": {
        "m_SerializedTexture": "{\"texture\":{\"instanceID\":0}}",
        "m_Guid": ""
    },
    "isMainTexture": false,
    "useTilingAndOffset": false,
    "m_Modifiable": true,
    "m_DefaultType": 0
}

{
    "m_SGVersion": 0,
    "m_Type": "UnityEditor.ShaderGraph.PropertyNode",
    "m_ObjectId": "3f9830cece1d4d01959914c6f2e38265",
    "m_Group": {
        "m_Id": ""
    },
    "m_Name": "Property",
    "m_DrawState": {
        "m_Expanded": true,
        "m_Position": {
            "serializedVersion": "2",
            "x": -732.0,
            "y": -152.0,
            "width": 153.0,
            "height": 34.0
        }
    },
    "m_Slots": [
        {
            "m_Id": "1c7987b2a2a5462898899eb969d057c9"
        }
    ],
    "synonyms": [],
    "m_Precision": 0,
    "m_PreviewExpanded": true,
    "m_PreviewMode": 0,
    "m_CustomColors": {
        "m_SerializableColors": []
    },
    "m_Property": {
        "m_Id": "463845cb9101490e8480a6fb5707c8b1"
    }
}

{
    "m_SGVersion": 0,
    "m_Type": "UnityEditor.ShaderGraph.Vector1MaterialSlot",
    "m_ObjectId": "4559c63118ba4d178924abfbb8e744e6",
    "m_Id": 14,
    "m_DisplayName": "MaxCameraDistance",
    "m_SlotType": 0,
    "m_Hidden": false,
    "m_ShaderOutputName": "MaxCameraDistance",
    "m_StageCapability": 3,
    "m_Value": 0.0,
    "m_DefaultValue": 0.0,
    "m_Labels": []
}

{
    "m_SGVersion": 1,
    "m_Type": "UnityEditor.ShaderGraph.Internal.Vector1ShaderProperty",
    "m_ObjectId": "463845cb9101490e8480a6fb5707c8b1",
    "m_Guid": {
        "m_GuidSerialized": "d45a0c99-baed-4fc4-9438-8fff04300ed1"
    },
    "m_Name": "MaxRayLength",
    "m_DefaultRefNameVersion": 1,
    "m_RefNameGeneratedByDisplayName": "MaxRayLength",
    "m_DefaultReferenceName": "_MaxRayLength",
    "m_OverrideReferenceName": "",
    "m_GeneratePropertyBlock": true,
    "m_UseCustomSlotLabel": false,
    "m_CustomSlotLabel": "",
    "m_Precision": 0,
    "overrideHLSLDeclaration": false,
    "hlslDeclarationOverride": 0,
    "m_Hidden": false,
    "m_Value": 1.0,
    "m_FloatType": 0,
    "m_RangeValues": {
        "x": 0.0,
        "y": 1.0
    }
}

{
    "m_SGVersion": 0,
    "m_Type": "UnityEditor.ShaderGraph.Texture2DInputMaterialSlot",
    "m_ObjectId": "492e9aca063448b48a9c93b21450faed",
    "m_Id": 1,
    "m_DisplayName": "Texture",
    "m_SlotType": 0,
    "m_Hidden": false,
    "m_ShaderOutputName": "Texture",
    "m_StageCapability": 3,
    "m_BareResource": false,
    "m_Texture": {
        "m_SerializedTexture": "{\"texture\":{\"instanceID\":0}}",
        "m_Guid": ""
    },
    "m_DefaultType": 0
}

{
    "m_SGVersion": 0,
    "m_Type": "UnityEditor.ShaderGraph.Internal.Texture2DShaderProperty",
    "m_ObjectId": "4a5ebc189e6d4fa59143f18f061919e3",
    "m_Guid": {
        "m_GuidSerialized": "3c6417b2-0a1c-4408-bff2-33da63b8c89f"
    },
    "m_Name": "_CameraDepthTexture",
    "m_DefaultRefNameVersion": 1,
    "m_RefNameGeneratedByDisplayName": "_CameraDepthTexture",
    "m_DefaultReferenceName": "_CameraDepthTexture",
    "m_OverrideReferenceName": "",
    "m_GeneratePropertyBlock": false,
    "m_UseCustomSlotLabel": false,
    "m_CustomSlotLabel": "",
    "m_Precision": 0,
    "overrideHLSLDeclaration": false,
    "hlslDeclarationOverride": 0,
    "m_Hidden": false,
    "m_Value": {
        "m_SerializedTexture": "{\"texture\":{\"instanceID\":0}}",
        "m_Guid": ""
    },
    "isMainTexture": false,
    "useTilingAndOffset": false,
    "m_Modifiable": true,
    "m_DefaultType": 0
}

{
    "m_SGVersion": 0,
    "m_Type": "UnityEditor.ShaderGraph.DynamicVectorMaterialSlot",
    "m_ObjectId": "5321a2f549da4de89e07859b17fc7b93",
    "m_Id": 0,
    "m_DisplayName": "In",
    "m_SlotType": 0,
    "m_Hidden": false,
    "m_ShaderOutputName": "In",
    "m_StageCapability": 3,
    "m_Value": {
        "x": 0.0,
        "y": 0.0,
        "z": 0.0,
        "w": 0.0
    },
    "m_DefaultValue": {
        "x": 0.0,
        "y": 0.0,
        "z": 0.0,
        "w": 0.0
    }
}

{
    "m_SGVersion": 1,
    "m_Type": "UnityEditor.ShaderGraph.CustomFunctionNode",
    "m_ObjectId": "53907162f33444339908123b2c8b0d36",
    "m_Group": {
        "m_Id": ""
    },
    "m_Name": "ScreenSpaceReflection (Custom Function)",
    "m_DrawState": {
        "m_Expanded": true,
        "m_Position": {
            "serializedVersion": "2",
            "x": -514.9998779296875,
            "y": -234.0,
            "width": 287.0,
            "height": 334.0000305175781
        }
    },
    "m_Slots": [
        {
            "m_Id": "de2e9de26fab434ab4aa0a870d3b0496"
        },
        {
            "m_Id": "e95d42b81f354e83865233b56b881477"
        },
        {
            "m_Id": "29cc183fc8c946379f631aa26edcb8cb"
        },
        {
            "m_Id": "b6315fd9b2d34e9aa5843cfa0bf3ba1e"
        },
        {
            "m_Id": "e08d879837424fca9792594678a498d8"
        },
        {
            "m_Id": "4559c63118ba4d178924abfbb8e744e6"
        },
        {
            "m_Id": "f65766a8e1f74a5d94fbf5b2ffb7aad4"
        },
        {
            "m_Id": "83fa877db1ed451e91f3cd598f3a2bfc"
        },
        {
            "m_Id": "a41c9ff0327243209f387c5163dc919c"
        },
        {
            "m_Id": "1cce86df264b4085a12411a22ebb748b"
        },
        {
            "m_Id": "7ccce71f24b142e48e16568781e1df5c"
        },
        {
            "m_Id": "b0697637e94c451fa9cf6ffca1beef68"
        }
    ],
    "synonyms": [
        "code",
        "HLSL"
    ],
    "m_Precision": 0,
    "m_PreviewExpanded": false,
    "m_PreviewMode": 0,
    "m_CustomColors": {
        "m_SerializableColors": []
    },
    "m_SourceType": 0,
    "m_FunctionName": "ScreenSpaceReflection",
    "m_FunctionSource": "e8e7ab4d07bd1aa4092cada09454a831",
    "m_FunctionBody": "OutColor = float3(0, 0, 0);\r\n    \r\n\tfloat3 ray = origin; //座標初期化\r\n    \r\n\tfor (int i = 0; i < maxLoop; i++)\r\n\t{\r\n\t\tray += rayVec * stepLength; //レイを進める\r\n        \r\n        \r\n        \r\n\t}"
}

{
    "m_SGVersion": 0,
    "m_Type": "UnityEditor.ShaderGraph.UVMaterialSlot",
    "m_ObjectId": "5534b5221388415c91240a8875ef41bc",
    "m_Id": 2,
    "m_DisplayName": "UV",
    "m_SlotType": 0,
    "m_Hidden": false,
    "m_ShaderOutputName": "UV",
    "m_StageCapability": 3,
    "m_Value": {
        "x": 0.0,
        "y": 0.0
    },
    "m_DefaultValue": {
        "x": 0.0,
        "y": 0.0
    },
    "m_Labels": [],
    "m_Channel": 0
}

{
    "m_SGVersion": 0,
    "m_Type": "UnityEditor.ShaderGraph.Vector1MaterialSlot",
    "m_ObjectId": "57f395b772ed410d926fdac356038a03",
    "m_Id": 0,
    "m_DisplayName": "Alpha",
    "m_SlotType": 0,
    "m_Hidden": false,
    "m_ShaderOutputName": "Alpha",
    "m_StageCapability": 2,
    "m_Value": 1.0,
    "m_DefaultValue": 1.0,
    "m_Labels": []
}

{
    "m_SGVersion": 0,
    "m_Type": "UnityEditor.ShaderGraph.CategoryData",
    "m_ObjectId": "5971ddf4d50c4f40b064002648ca6b54",
    "m_Name": "",
    "m_ChildObjectList": [
        {
            "m_Id": "de6b59f2b8a840f49c38320b7280bdad"
        },
        {
            "m_Id": "4a5ebc189e6d4fa59143f18f061919e3"
        },
        {
            "m_Id": "3d33666c0a8941098ba757c7da36b103"
        },
        {
            "m_Id": "9408de8a80d54fd8b7b73b7f7439af20"
        },
        {
            "m_Id": "d45aad65e0354836a0816bf769ce67e0"
        },
        {
            "m_Id": "463845cb9101490e8480a6fb5707c8b1"
        },
        {
            "m_Id": "9132ed8d8d894b9dadf6d4505888100b"
        },
        {
            "m_Id": "9686ee8f011942f28b1f31b246f21e3f"
        },
        {
            "m_Id": "239e5f8ce6ef4f27b5d48bbf31147f70"
        },
        {
            "m_Id": "ad4ac8670ce64167a3f3674f7635eed7"
        }
    ]
}

{
    "m_SGVersion": 0,
    "m_Type": "UnityEditor.ShaderGraph.TangentMaterialSlot",
    "m_ObjectId": "5d267d32c05c410caa3e61d82d7bf85a",
    "m_Id": 0,
    "m_DisplayName": "Tangent",
    "m_SlotType": 0,
    "m_Hidden": false,
    "m_ShaderOutputName": "Tangent",
    "m_StageCapability": 1,
    "m_Value": {
        "x": 0.0,
        "y": 0.0,
        "z": 0.0
    },
    "m_DefaultValue": {
        "x": 0.0,
        "y": 0.0,
        "z": 0.0
    },
    "m_Labels": [],
    "m_Space": 0
}

{
    "m_SGVersion": 0,
    "m_Type": "UnityEditor.ShaderGraph.PropertyNode",
    "m_ObjectId": "5e618d4a7e224da992c23983697d997a",
    "m_Group": {
        "m_Id": ""
    },
    "m_Name": "Property",
    "m_DrawState": {
        "m_Expanded": true,
        "m_Position": {
            "serializedVersion": "2",
            "x": -1712.0,
            "y": 349.0000305175781,
            "width": 228.0,
            "height": 33.999969482421878
        }
    },
    "m_Slots": [
        {
            "m_Id": "968999faf04a41bf9650155065d89fa4"
        }
    ],
    "synonyms": [],
    "m_Precision": 0,
    "m_PreviewExpanded": false,
    "m_PreviewMode": 0,
    "m_CustomColors": {
        "m_SerializableColors": []
    },
    "m_Property": {
        "m_Id": "de6b59f2b8a840f49c38320b7280bdad"
    }
}

{
    "m_SGVersion": 0,
    "m_Type": "UnityEditor.ShaderGraph.PropertyNode",
    "m_ObjectId": "5e76174086334d41af76c136e9c5f34a",
    "m_Group": {
        "m_Id": ""
    },
    "m_Name": "Property",
    "m_DrawState": {
        "m_Expanded": true,
        "m_Position": {
            "serializedVersion": "2",
            "x": -709.0,
            "y": -19.000003814697267,
            "width": 131.0,
            "height": 33.999996185302737
        }
    },
    "m_Slots": [
        {
            "m_Id": "06cabbb5de074b4b8d7460c209498a34"
        }
    ],
    "synonyms": [],
    "m_Precision": 0,
    "m_PreviewExpanded": false,
    "m_PreviewMode": 0,
    "m_CustomColors": {
        "m_SerializableColors": []
    },
    "m_Property": {
        "m_Id": "9408de8a80d54fd8b7b73b7f7439af20"
    }
}

{
    "m_SGVersion": 0,
    "m_Type": "UnityEditor.ShaderGraph.PropertyNode",
    "m_ObjectId": "6520458bedac42359227c3ed8a00428b",
    "m_Group": {
        "m_Id": ""
    },
    "m_Name": "Property",
    "m_DrawState": {
        "m_Expanded": true,
        "m_Position": {
            "serializedVersion": "2",
            "x": -780.0,
            "y": 82.99999237060547,
            "width": 201.0,
            "height": 34.00001525878906
        }
    },
    "m_Slots": [
        {
            "m_Id": "24a2ab3ce398480d8a4cc28b24a9cae7"
        }
    ],
    "synonyms": [],
    "m_Precision": 0,
    "m_PreviewExpanded": false,
    "m_PreviewMode": 0,
    "m_CustomColors": {
        "m_SerializableColors": []
    },
    "m_Property": {
        "m_Id": "3d33666c0a8941098ba757c7da36b103"
    }
}

{
    "m_SGVersion": 0,
    "m_Type": "UnityEditor.ShaderGraph.SampleTexture2DNode",
    "m_ObjectId": "68284a3dc0194e59873830d678820e3b",
    "m_Group": {
        "m_Id": ""
    },
    "m_Name": "Sample Texture 2D",
    "m_DrawState": {
        "m_Expanded": true,
        "m_Position": {
            "serializedVersion": "2",
            "x": -1484.0,
            "y": 313.0000305175781,
            "width": 183.0,
            "height": 250.99996948242188
        }
    },
    "m_Slots": [
        {
            "m_Id": "a2a9be12d050478fb7ace554709a1969"
        },
        {
            "m_Id": "e3e72d2c25344ce98b676ff01d93398b"
        },
        {
            "m_Id": "cb45556ef3bb4bf89f9b16f026c3c8dc"
        },
        {
            "m_Id": "bcdf031fca7d46dfb4e01311947c104b"
        },
        {
            "m_Id": "e53cf951407f4745b4c196872beef260"
        },
        {
            "m_Id": "1c2fbfd8b3cd4f15a71bdd5b858f4e20"
        },
        {
            "m_Id": "2bfff92b2bea45bd8d13ad0efd489d40"
        },
        {
            "m_Id": "a4f7f2413dc74bc5bf956135c9704af2"
        }
    ],
    "synonyms": [],
    "m_Precision": 0,
    "m_PreviewExpanded": false,
    "m_PreviewMode": 0,
    "m_CustomColors": {
        "m_SerializableColors": []
    },
    "m_TextureType": 1,
    "m_NormalMapSpace": 1,
    "m_EnableGlobalMipBias": true
}

{
    "m_SGVersion": 0,
    "m_Type": "UnityEditor.ShaderGraph.StickyNoteData",
    "m_ObjectId": "688102907ae64832a56512797224c24c",
    "m_Title": "WorldNormal",
    "m_Content": "",
    "m_TextSize": 0,
    "m_Theme": 1,
    "m_Position": {
        "serializedVersion": "2",
        "x": -1721.0,
        "y": 299.0,
        "width": 617.0,
        "height": 272.87713623046877
    },
    "m_Group": {
        "m_Id": ""
    }
}

{
    "m_SGVersion": 0,
    "m_Type": "UnityEditor.ShaderGraph.Vector3MaterialSlot",
    "m_ObjectId": "68f063dfe5744020a2092306ddb45d57",
    "m_Id": 0,
    "m_DisplayName": "Position",
    "m_SlotType": 1,
    "m_Hidden": false,
    "m_ShaderOutputName": "Position",
    "m_StageCapability": 3,
    "m_Value": {
        "x": 0.0,
        "y": 0.0,
        "z": 0.0
    },
    "m_DefaultValue": {
        "x": 0.0,
        "y": 0.0,
        "z": 0.0
    },
    "m_Labels": []
}

{
    "m_SGVersion": 0,
    "m_Type": "UnityEditor.ShaderGraph.Vector1MaterialSlot",
    "m_ObjectId": "69e9efdac6b3444dbc60eef20e2a9ac6",
    "m_Id": 0,
    "m_DisplayName": "MaxCameraDistance",
    "m_SlotType": 1,
    "m_Hidden": false,
    "m_ShaderOutputName": "Out",
    "m_StageCapability": 3,
    "m_Value": 0.0,
    "m_DefaultValue": 0.0,
    "m_Labels": []
}

{
    "m_SGVersion": 0,
    "m_Type": "UnityEditor.ShaderGraph.SubtractNode",
    "m_ObjectId": "6dc59ca50b134545b30b9b1d1b7209fd",
    "m_Group": {
        "m_Id": ""
    },
    "m_Name": "Subtract",
    "m_DrawState": {
        "m_Expanded": true,
        "m_Position": {
            "serializedVersion": "2",
            "x": -1435.0,
            "y": -79.0,
            "width": 130.0,
            "height": 118.0
        }
    },
    "m_Slots": [
        {
            "m_Id": "1d17ed91783647b78ad366c194630cf0"
        },
        {
            "m_Id": "e6591671441a46e99dcb3ec140d283a4"
        },
        {
            "m_Id": "0ca610034cee4d388b59508a7654cf55"
        }
    ],
    "synonyms": [
        "subtraction",
        "remove",
        "minus",
        "take away"
    ],
    "m_Precision": 0,
    "m_PreviewExpanded": false,
    "m_PreviewMode": 0,
    "m_CustomColors": {
        "m_SerializableColors": []
    }
}

{
    "m_SGVersion": 0,
    "m_Type": "UnityEditor.ShaderGraph.PropertyNode",
    "m_ObjectId": "6e44730a38934291bec68c2d6c8d2549",
    "m_Group": {
        "m_Id": ""
    },
    "m_Name": "Property",
    "m_DrawState": {
        "m_Expanded": true,
        "m_Position": {
            "serializedVersion": "2",
            "x": -725.0,
            "y": 14.999993324279786,
            "width": 147.0,
            "height": 34.0
        }
    },
    "m_Slots": [
        {
            "m_Id": "0552058f8af9405884e0115f0f5f2a52"
        }
    ],
    "synonyms": [],
    "m_Precision": 0,
    "m_PreviewExpanded": false,
    "m_PreviewMode": 0,
    "m_CustomColors": {
        "m_SerializableColors": []
    },
    "m_Property": {
        "m_Id": "d45aad65e0354836a0816bf769ce67e0"
    }
}

{
    "m_SGVersion": 0,
    "m_Type": "UnityEditor.ShaderGraph.BlockNode",
    "m_ObjectId": "6e73670964da4eca8afae546b1621337",
    "m_Group": {
        "m_Id": ""
    },
    "m_Name": "SurfaceDescription.BaseColor",
    "m_DrawState": {
        "m_Expanded": true,
        "m_Position": {
            "serializedVersion": "2",
            "x": 0.0,
            "y": 0.0,
            "width": 0.0,
            "height": 0.0
        }
    },
    "m_Slots": [
        {
            "m_Id": "f04a3c6e75474051a7225b8ca262c6eb"
        }
    ],
    "synonyms": [],
    "m_Precision": 0,
    "m_PreviewExpanded": false,
    "m_PreviewMode": 0,
    "m_CustomColors": {
        "m_SerializableColors": []
    },
    "m_SerializedDescriptor": "SurfaceDescription.BaseColor"
}

{
    "m_SGVersion": 0,
    "m_Type": "UnityEditor.ShaderGraph.Vector1MaterialSlot",
    "m_ObjectId": "6e97dd578dee41c4ae3f5cfcce3d518c",
    "m_Id": 7,
    "m_DisplayName": "A",
    "m_SlotType": 1,
    "m_Hidden": false,
    "m_ShaderOutputName": "A",
    "m_StageCapability": 2,
    "m_Value": 0.0,
    "m_DefaultValue": 0.0,
    "m_Labels": []
}

{
    "m_SGVersion": 0,
    "m_Type": "UnityEditor.ShaderGraph.Vector1MaterialSlot",
    "m_ObjectId": "6f30bbd32f2f4b798b6bc5956ef3f547",
    "m_Id": 6,
    "m_DisplayName": "B",
    "m_SlotType": 1,
    "m_Hidden": false,
    "m_ShaderOutputName": "B",
    "m_StageCapability": 2,
    "m_Value": 0.0,
    "m_DefaultValue": 0.0,
    "m_Labels": []
}

{
    "m_SGVersion": 0,
    "m_Type": "UnityEditor.ShaderGraph.DynamicVectorMaterialSlot",
    "m_ObjectId": "7030e565132542d6b94f3bf1df679ae1",
    "m_Id": 2,
    "m_DisplayName": "Out",
    "m_SlotType": 1,
    "m_Hidden": false,
    "m_ShaderOutputName": "Out",
    "m_StageCapability": 3,
    "m_Value": {
        "x": 0.0,
        "y": 0.0,
        "z": 0.0,
        "w": 0.0
    },
    "m_DefaultValue": {
        "x": 0.0,
        "y": 0.0,
        "z": 0.0,
        "w": 0.0
    }
}

{
    "m_SGVersion": 0,
    "m_Type": "UnityEditor.ShaderGraph.Texture2DInputMaterialSlot",
    "m_ObjectId": "7ccce71f24b142e48e16568781e1df5c",
    "m_Id": 7,
    "m_DisplayName": "MainTexture",
    "m_SlotType": 0,
    "m_Hidden": false,
    "m_ShaderOutputName": "MainTexture",
    "m_StageCapability": 3,
    "m_BareResource": false,
    "m_Texture": {
        "m_SerializedTexture": "{\"texture\":{\"instanceID\":0}}",
        "m_Guid": ""
    },
    "m_DefaultType": 0
}

{
    "m_SGVersion": 0,
    "m_Type": "UnityEditor.ShaderGraph.DynamicVectorMaterialSlot",
    "m_ObjectId": "80dc64fa420949e4922f213a1b9fa955",
    "m_Id": 0,
    "m_DisplayName": "In",
    "m_SlotType": 0,
    "m_Hidden": false,
    "m_ShaderOutputName": "In",
    "m_StageCapability": 3,
    "m_Value": {
        "x": 0.0,
        "y": 0.0,
        "z": 0.0,
        "w": 0.0
    },
    "m_DefaultValue": {
        "x": 0.0,
        "y": 0.0,
        "z": 0.0,
        "w": 0.0
    }
}

{
    "m_SGVersion": 0,
    "m_Type": "UnityEditor.ShaderGraph.Vector1MaterialSlot",
    "m_ObjectId": "81772b44817d481e8df7e897c87b53ce",
    "m_Id": 5,
    "m_DisplayName": "Z Buffer Sign",
    "m_SlotType": 1,
    "m_Hidden": false,
    "m_ShaderOutputName": "Z Buffer Sign",
    "m_StageCapability": 3,
    "m_Value": 1.0,
    "m_DefaultValue": 1.0,
    "m_Labels": []
}

{
    "m_SGVersion": 0,
    "m_Type": "UnityEditor.ShaderGraph.Matrix4MaterialSlot",
    "m_ObjectId": "83fa877db1ed451e91f3cd598f3a2bfc",
    "m_Id": 9,
    "m_DisplayName": "matrixVP",
    "m_SlotType": 0,
    "m_Hidden": false,
    "m_ShaderOutputName": "matrixVP",
    "m_StageCapability": 3,
    "m_Value": {
        "e00": 1.0,
        "e01": 0.0,
        "e02": 0.0,
        "e03": 0.0,
        "e10": 0.0,
        "e11": 1.0,
        "e12": 0.0,
        "e13": 0.0,
        "e20": 0.0,
        "e21": 0.0,
        "e22": 1.0,
        "e23": 0.0,
        "e30": 0.0,
        "e31": 0.0,
        "e32": 0.0,
        "e33": 1.0
    },
    "m_DefaultValue": {
        "e00": 1.0,
        "e01": 0.0,
        "e02": 0.0,
        "e03": 0.0,
        "e10": 0.0,
        "e11": 1.0,
        "e12": 0.0,
        "e13": 0.0,
        "e20": 0.0,
        "e21": 0.0,
        "e22": 1.0,
        "e23": 0.0,
        "e30": 0.0,
        "e31": 0.0,
        "e32": 0.0,
        "e33": 1.0
    }
}

{
    "m_SGVersion": 0,
    "m_Type": "UnityEditor.ShaderGraph.PropertyNode",
    "m_ObjectId": "85d9f6b176a344959b6443c3fd4161cf",
    "m_Group": {
        "m_Id": ""
    },
    "m_Name": "Property",
    "m_DrawState": {
        "m_Expanded": true,
        "m_Position": {
            "serializedVersion": "2",
            "x": -2199.000244140625,
            "y": 55.999996185302737,
            "width": 147.000244140625,
            "height": 33.999996185302737
        }
    },
    "m_Slots": [
        {
            "m_Id": "2d7ad844d54d46a19dff3b0c4cd1f679"
        }
    ],
    "synonyms": [],
    "m_Precision": 0,
    "m_PreviewExpanded": true,
    "m_PreviewMode": 0,
    "m_CustomColors": {
        "m_SerializableColors": []
    },
    "m_Property": {
        "m_Id": "d45aad65e0354836a0816bf769ce67e0"
    }
}

{
    "m_SGVersion": 0,
    "m_Type": "UnityEditor.ShaderGraph.Vector3Node",
    "m_ObjectId": "8b8dd52321f849a180db5d53c8eaeee6",
    "m_Group": {
        "m_Id": ""
    },
    "m_Name": "Vector 3",
    "m_DrawState": {
        "m_Expanded": true,
        "m_Position": {
            "serializedVersion": "2",
            "x": -1273.0,
            "y": 330.0000305175781,
            "width": 128.0,
            "height": 125.0
        }
    },
    "m_Slots": [
        {
            "m_Id": "cd2831470f9345e4b46dc96cf916f9bb"
        },
        {
            "m_Id": "a0a9e9569bbf4f8c847abb0d281ea450"
        },
        {
            "m_Id": "ddaaafdad5c64f13a9547454a883ce27"
        },
        {
            "m_Id": "d4ec9e6536664d3bb09ae50b66c55e79"
        }
    ],
    "synonyms": [
        "3",
        "v3",
        "vec3",
        "float3"
    ],
    "m_Precision": 0,
    "m_PreviewExpanded": false,
    "m_PreviewMode": 0,
    "m_CustomColors": {
        "m_SerializableColors": []
    },
    "m_Value": {
        "x": 0.0,
        "y": 0.0,
        "z": 0.0
    }
}

{
    "m_SGVersion": 1,
    "m_Type": "UnityEditor.ShaderGraph.Internal.Vector1ShaderProperty",
    "m_ObjectId": "9132ed8d8d894b9dadf6d4505888100b",
    "m_Guid": {
        "m_GuidSerialized": "d4a20518-4a86-4bbf-a5d6-af49c1dd17e7"
    },
    "m_Name": "MaxMarchingCount",
    "m_DefaultRefNameVersion": 1,
    "m_RefNameGeneratedByDisplayName": "MaxMarchingCount",
    "m_DefaultReferenceName": "_MaxMarchingCount",
    "m_OverrideReferenceName": "",
    "m_GeneratePropertyBlock": true,
    "m_UseCustomSlotLabel": false,
    "m_CustomSlotLabel": "",
    "m_Precision": 0,
    "overrideHLSLDeclaration": false,
    "hlslDeclarationOverride": 0,
    "m_Hidden": false,
    "m_Value": 10.0,
    "m_FloatType": 0,
    "m_RangeValues": {
        "x": 0.0,
        "y": 1.0
    }
}

{
    "m_SGVersion": 0,
    "m_Type": "UnityEditor.ShaderGraph.StickyNoteData",
    "m_ObjectId": "92bb79f1858a4f3db2ae6e9269282e27",
    "m_Title": "SSRループ開始",
    "m_Content": "Write something here",
    "m_TextSize": 0,
    "m_Theme": 1,
    "m_Position": {
        "serializedVersion": "2",
        "x": -545.0,
        "y": -289.0,
        "width": 342.35748291015627,
        "height": 411.65753173828127
    },
    "m_Group": {
        "m_Id": ""
    }
}

{
    "m_SGVersion": 0,
    "m_Type": "UnityEditor.ShaderGraph.Vector4MaterialSlot",
    "m_ObjectId": "938786e2499a4136b4a46ac992a82f14",
    "m_Id": 0,
    "m_DisplayName": "RGBA",
    "m_SlotType": 1,
    "m_Hidden": false,
    "m_ShaderOutputName": "RGBA",
    "m_StageCapability": 2,
    "m_Value": {
        "x": 0.0,
        "y": 0.0,
        "z": 0.0,
        "w": 0.0
    },
    "m_DefaultValue": {
        "x": 0.0,
        "y": 0.0,
        "z": 0.0,
        "w": 0.0
    },
    "m_Labels": []
}

{
    "m_SGVersion": 1,
    "m_Type": "UnityEditor.ShaderGraph.Matrix4ShaderProperty",
    "m_ObjectId": "9408de8a80d54fd8b7b73b7f7439af20",
    "m_Guid": {
        "m_GuidSerialized": "acf981d6-b426-4a9c-bab0-e382ae4d1f9e"
    },
    "m_Name": "_ViewProj",
    "m_DefaultRefNameVersion": 1,
    "m_RefNameGeneratedByDisplayName": "_ViewProj",
    "m_DefaultReferenceName": "_ViewProj",
    "m_OverrideReferenceName": "",
    "m_GeneratePropertyBlock": false,
    "m_UseCustomSlotLabel": false,
    "m_CustomSlotLabel": "",
    "m_Precision": 0,
    "overrideHLSLDeclaration": false,
    "hlslDeclarationOverride": 0,
    "m_Hidden": false,
    "m_Value": {
        "e00": 1.0,
        "e01": 0.0,
        "e02": 0.0,
        "e03": 0.0,
        "e10": 0.0,
        "e11": 1.0,
        "e12": 0.0,
        "e13": 0.0,
        "e20": 0.0,
        "e21": 0.0,
        "e22": 1.0,
        "e23": 0.0,
        "e30": 0.0,
        "e31": 0.0,
        "e32": 0.0,
        "e33": 1.0
    }
}

{
    "m_SGVersion": 0,
    "m_Type": "UnityEditor.ShaderGraph.Vector1MaterialSlot",
    "m_ObjectId": "95e780177c6c4a149eb4f2e61b9f1667",
    "m_Id": 5,
    "m_DisplayName": "G",
    "m_SlotType": 1,
    "m_Hidden": false,
    "m_ShaderOutputName": "G",
    "m_StageCapability": 2,
    "m_Value": 0.0,
    "m_DefaultValue": 0.0,
    "m_Labels": []
}

{
    "m_SGVersion": 1,
    "m_Type": "UnityEditor.ShaderGraph.Internal.Vector1ShaderProperty",
    "m_ObjectId": "9686ee8f011942f28b1f31b246f21e3f",
    "m_Guid": {
        "m_GuidSerialized": "8fb56fff-60d4-4c1d-8b76-7a2a314dbdd8"
    },
    "m_Name": "ObjThickness",
    "m_DefaultRefNameVersion": 1,
    "m_RefNameGeneratedByDisplayName": "ObjThickness",
    "m_DefaultReferenceName": "_ObjThickness",
    "m_OverrideReferenceName": "",
    "m_GeneratePropertyBlock": true,
    "m_UseCustomSlotLabel": false,
    "m_CustomSlotLabel": "",
    "m_Precision": 0,
    "overrideHLSLDeclaration": false,
    "hlslDeclarationOverride": 0,
    "m_Hidden": false,
    "m_Value": 1.0,
    "m_FloatType": 0,
    "m_RangeValues": {
        "x": 0.0,
        "y": 1.0
    }
}

{
    "m_SGVersion": 0,
    "m_Type": "UnityEditor.ShaderGraph.Texture2DMaterialSlot",
    "m_ObjectId": "968999faf04a41bf9650155065d89fa4",
    "m_Id": 0,
    "m_DisplayName": "_NormalOnlyTexture",
    "m_SlotType": 1,
    "m_Hidden": false,
    "m_ShaderOutputName": "Out",
    "m_StageCapability": 3,
    "m_BareResource": false
}

{
    "m_SGVersion": 0,
    "m_Type": "UnityEditor.ShaderGraph.PropertyNode",
    "m_ObjectId": "9939035da0a2462fa212a46751d600e3",
    "m_Group": {
        "m_Id": ""
    },
    "m_Name": "Property",
    "m_DrawState": {
        "m_Expanded": true,
        "m_Position": {
            "serializedVersion": "2",
            "x": -761.0,
            "y": -84.0,
            "width": 183.0,
            "height": 33.999996185302737
        }
    },
    "m_Slots": [
        {
            "m_Id": "69e9efdac6b3444dbc60eef20e2a9ac6"
        }
    ],
    "synonyms": [],
    "m_Precision": 0,
    "m_PreviewExpanded": true,
    "m_PreviewMode": 0,
    "m_CustomColors": {
        "m_SerializableColors": []
    },
    "m_Property": {
        "m_Id": "239e5f8ce6ef4f27b5d48bbf31147f70"
    }
}

{
    "m_SGVersion": 0,
    "m_Type": "UnityEditor.ShaderGraph.PropertyNode",
    "m_ObjectId": "99ce200fcecd40da911865436615778e",
    "m_Group": {
        "m_Id": ""
    },
    "m_Name": "Property",
    "m_DrawState": {
        "m_Expanded": true,
        "m_Position": {
            "serializedVersion": "2",
            "x": -756.0,
            "y": -186.0,
            "width": 177.0,
            "height": 34.0
        }
    },
    "m_Slots": [
        {
            "m_Id": "21b6f6bccd604c33bdbdcb53f0aaa0a5"
        }
    ],
    "synonyms": [],
    "m_Precision": 0,
    "m_PreviewExpanded": true,
    "m_PreviewMode": 0,
    "m_CustomColors": {
        "m_SerializableColors": []
    },
    "m_Property": {
        "m_Id": "9132ed8d8d894b9dadf6d4505888100b"
    }
}

{
    "m_SGVersion": 0,
    "m_Type": "UnityEditor.ShaderGraph.Vector1MaterialSlot",
    "m_ObjectId": "9c10fdf8b00345f6900d52611cf097b0",
    "m_Id": 6,
    "m_DisplayName": "Width",
    "m_SlotType": 1,
    "m_Hidden": false,
    "m_ShaderOutputName": "Width",
    "m_StageCapability": 3,
    "m_Value": 1.0,
    "m_DefaultValue": 1.0,
    "m_Labels": []
}

{
    "m_SGVersion": 0,
    "m_Type": "UnityEditor.ShaderGraph.PositionMaterialSlot",
    "m_ObjectId": "9cd37ee935bf4351bea93746e57ecd87",
    "m_Id": 0,
    "m_DisplayName": "Position",
    "m_SlotType": 0,
    "m_Hidden": false,
    "m_ShaderOutputName": "Position",
    "m_StageCapability": 1,
    "m_Value": {
        "x": 0.0,
        "y": 0.0,
        "z": 0.0
    },
    "m_DefaultValue": {
        "x": 0.0,
        "y": 0.0,
        "z": 0.0
    },
    "m_Labels": [],
    "m_Space": 0
}

{
    "m_SGVersion": 0,
    "m_Type": "UnityEditor.ShaderGraph.Vector1MaterialSlot",
    "m_ObjectId": "9da4ca05ca814a9b9fbfa8284185c43f",
    "m_Id": 3,
    "m_DisplayName": "Near Plane",
    "m_SlotType": 1,
    "m_Hidden": false,
    "m_ShaderOutputName": "Near Plane",
    "m_StageCapability": 3,
    "m_Value": 0.0,
    "m_DefaultValue": 0.0,
    "m_Labels": []
}

{
    "m_SGVersion": 0,
    "m_Type": "UnityEditor.ShaderGraph.Vector1MaterialSlot",
    "m_ObjectId": "a0a9e9569bbf4f8c847abb0d281ea450",
    "m_Id": 2,
    "m_DisplayName": "Y",
    "m_SlotType": 0,
    "m_Hidden": false,
    "m_ShaderOutputName": "Y",
    "m_StageCapability": 3,
    "m_Value": 0.0,
    "m_DefaultValue": 0.0,
    "m_Labels": [
        "Y"
    ]
}

{
    "m_SGVersion": 0,
    "m_Type": "UnityEditor.ShaderGraph.Vector4MaterialSlot",
    "m_ObjectId": "a2a9be12d050478fb7ace554709a1969",
    "m_Id": 0,
    "m_DisplayName": "RGBA",
    "m_SlotType": 1,
    "m_Hidden": false,
    "m_ShaderOutputName": "RGBA",
    "m_StageCapability": 2,
    "m_Value": {
        "x": 0.0,
        "y": 0.0,
        "z": 0.0,
        "w": 0.0
    },
    "m_DefaultValue": {
        "x": 0.0,
        "y": 0.0,
        "z": 0.0,
        "w": 0.0
    },
    "m_Labels": []
}

{
    "m_SGVersion": 0,
    "m_Type": "UnityEditor.ShaderGraph.Matrix4MaterialSlot",
    "m_ObjectId": "a41c9ff0327243209f387c5163dc919c",
    "m_Id": 8,
    "m_DisplayName": "InvVP",
    "m_SlotType": 0,
    "m_Hidden": false,
    "m_ShaderOutputName": "InvVP",
    "m_StageCapability": 3,
    "m_Value": {
        "e00": 1.0,
        "e01": 0.0,
        "e02": 0.0,
        "e03": 0.0,
        "e10": 0.0,
        "e11": 1.0,
        "e12": 0.0,
        "e13": 0.0,
        "e20": 0.0,
        "e21": 0.0,
        "e22": 1.0,
        "e23": 0.0,
        "e30": 0.0,
        "e31": 0.0,
        "e32": 0.0,
        "e33": 1.0
    },
    "m_DefaultValue": {
        "e00": 1.0,
        "e01": 0.0,
        "e02": 0.0,
        "e03": 0.0,
        "e10": 0.0,
        "e11": 1.0,
        "e12": 0.0,
        "e13": 0.0,
        "e20": 0.0,
        "e21": 0.0,
        "e22": 1.0,
        "e23": 0.0,
        "e30": 0.0,
        "e31": 0.0,
        "e32": 0.0,
        "e33": 1.0
    }
}

{
    "m_SGVersion": 0,
    "m_Type": "UnityEditor.ShaderGraph.SamplerStateMaterialSlot",
    "m_ObjectId": "a4f7f2413dc74bc5bf956135c9704af2",
    "m_Id": 3,
    "m_DisplayName": "Sampler",
    "m_SlotType": 0,
    "m_Hidden": false,
    "m_ShaderOutputName": "Sampler",
    "m_StageCapability": 3,
    "m_BareResource": false
}

{
    "m_SGVersion": 0,
    "m_Type": "UnityEditor.ShaderGraph.ScreenPositionNode",
    "m_ObjectId": "a977284e37c5436dad10730943725ff7",
    "m_Group": {
        "m_Id": ""
    },
    "m_Name": "Screen Position",
    "m_DrawState": {
        "m_Expanded": true,
        "m_Position": {
            "serializedVersion": "2",
            "x": -2257.0,
            "y": -345.99993896484377,
            "width": 145.0,
            "height": 128.9999542236328
        }
    },
    "m_Slots": [
        {
            "m_Id": "382c21f9130d4b5fa23ec3f61fd79ba3"
        }
    ],
    "synonyms": [],
    "m_Precision": 0,
    "m_PreviewExpanded": false,
    "m_PreviewMode": 0,
    "m_CustomColors": {
        "m_SerializableColors": []
    },
    "m_ScreenSpaceType": 0
}

{
    "m_SGVersion": 0,
    "m_Type": "UnityEditor.ShaderGraph.SampleTexture2DNode",
    "m_ObjectId": "ab4d8b967b714c568583b2e09b868801",
    "m_Group": {
        "m_Id": ""
    },
    "m_Name": "Sample Texture 2D",
    "m_DrawState": {
        "m_Expanded": true,
        "m_Position": {
            "serializedVersion": "2",
            "x": -2257.0,
            "y": -217.00001525878907,
            "width": 183.0,
            "height": 251.00006103515626
        }
    },
    "m_Slots": [
        {
            "m_Id": "938786e2499a4136b4a46ac992a82f14"
        },
        {
            "m_Id": "ab6703ed2824420c9dc3c7fc9ecd759d"
        },
        {
            "m_Id": "95e780177c6c4a149eb4f2e61b9f1667"
        },
        {
            "m_Id": "6f30bbd32f2f4b798b6bc5956ef3f547"
        },
        {
            "m_Id": "6e97dd578dee41c4ae3f5cfcce3d518c"
        },
        {
            "m_Id": "492e9aca063448b48a9c93b21450faed"
        },
        {
            "m_Id": "5534b5221388415c91240a8875ef41bc"
        },
        {
            "m_Id": "c957e83a640f43708257d3a247682532"
        }
    ],
    "synonyms": [],
    "m_Precision": 0,
    "m_PreviewExpanded": false,
    "m_PreviewMode": 0,
    "m_CustomColors": {
        "m_SerializableColors": []
    },
    "m_TextureType": 0,
    "m_NormalMapSpace": 0,
    "m_EnableGlobalMipBias": true
}

{
    "m_SGVersion": 0,
    "m_Type": "UnityEditor.ShaderGraph.Vector1MaterialSlot",
    "m_ObjectId": "ab6703ed2824420c9dc3c7fc9ecd759d",
    "m_Id": 4,
    "m_DisplayName": "R",
    "m_SlotType": 1,
    "m_Hidden": false,
    "m_ShaderOutputName": "R",
    "m_StageCapability": 2,
    "m_Value": 0.0,
    "m_DefaultValue": 0.0,
    "m_Labels": []
}

{
    "m_SGVersion": 0,
    "m_Type": "UnityEditor.ShaderGraph.StickyNoteData",
    "m_ObjectId": "ab803ddd6e6d48a5857aa031fb07fade",
    "m_Title": "ﾚｲの原点となる座標を算出",
    "m_Content": "Write something here",
    "m_TextSize": 0,
    "m_Theme": 1,
    "m_Position": {
        "serializedVersion": "2",
        "x": -2477.0,
        "y": -378.0,
        "width": 825.7999267578125,
        "height": 486.3999938964844
    },
    "m_Group": {
        "m_Id": ""
    }
}

{
    "m_SGVersion": 1,
    "m_Type": "UnityEditor.ShaderGraph.Internal.Vector1ShaderProperty",
    "m_ObjectId": "ad4ac8670ce64167a3f3674f7635eed7",
    "m_Guid": {
        "m_GuidSerialized": "80bc9a5f-a884-4adb-a6d9-702b098b0158"
    },
    "m_Name": "Power",
    "m_DefaultRefNameVersion": 1,
    "m_RefNameGeneratedByDisplayName": "Power",
    "m_DefaultReferenceName": "_Power",
    "m_OverrideReferenceName": "",
    "m_GeneratePropertyBlock": true,
    "m_UseCustomSlotLabel": false,
    "m_CustomSlotLabel": "",
    "m_Precision": 0,
    "overrideHLSLDeclaration": false,
    "hlslDeclarationOverride": 0,
    "m_Hidden": false,
    "m_Value": 0.20000000298023225,
    "m_FloatType": 0,
    "m_RangeValues": {
        "x": 0.0,
        "y": 1.0
    }
}

{
    "m_SGVersion": 0,
    "m_Type": "UnityEditor.ShaderGraph.Vector2MaterialSlot",
    "m_ObjectId": "addcdfc741af4897a53a46f4b4dd5840",
    "m_Id": 1,
    "m_DisplayName": "screenPos",
    "m_SlotType": 0,
    "m_Hidden": false,
    "m_ShaderOutputName": "screenPos",
    "m_StageCapability": 3,
    "m_Value": {
        "x": 0.0,
        "y": 0.0
    },
    "m_DefaultValue": {
        "x": 0.0,
        "y": 0.0
    },
    "m_Labels": []
}

{
    "m_SGVersion": 0,
    "m_Type": "UnityEditor.ShaderGraph.Vector3MaterialSlot",
    "m_ObjectId": "b0697637e94c451fa9cf6ffca1beef68",
    "m_Id": 1,
    "m_DisplayName": "ReflectColor",
    "m_SlotType": 1,
    "m_Hidden": false,
    "m_ShaderOutputName": "ReflectColor",
    "m_StageCapability": 3,
    "m_Value": {
        "x": 0.0,
        "y": 0.0,
        "z": 0.0
    },
    "m_DefaultValue": {
        "x": 0.0,
        "y": 0.0,
        "z": 0.0
    },
    "m_Labels": []
}

{
    "m_SGVersion": 0,
    "m_Type": "UnityEditor.ShaderGraph.CameraNode",
    "m_ObjectId": "b0743b3085614d66b85f80addca47d71",
    "m_Group": {
        "m_Id": ""
    },
    "m_Name": "Camera",
    "m_DrawState": {
        "m_Expanded": true,
        "m_Position": {
            "serializedVersion": "2",
            "x": -1582.0,
            "y": -21.0,
            "width": 122.0,
            "height": 245.0
        }
    },
    "m_Slots": [
        {
            "m_Id": "68f063dfe5744020a2092306ddb45d57"
        },
        {
            "m_Id": "1393ebda282a49c699f9ac5b288d2f90"
        },
        {
            "m_Id": "b0bc655140a74fd28d578e772e283fb9"
        },
        {
            "m_Id": "9da4ca05ca814a9b9fbfa8284185c43f"
        },
        {
            "m_Id": "17907fd50392438daa6b3e6423dd6c7c"
        },
        {
            "m_Id": "81772b44817d481e8df7e897c87b53ce"
        },
        {
            "m_Id": "9c10fdf8b00345f6900d52611cf097b0"
        },
        {
            "m_Id": "b5f7d52e75424a9c864cdd0c4c1cc657"
        }
    ],
    "synonyms": [
        "position",
        "direction",
        "orthographic",
        "near plane",
        "far plane",
        "width",
        "height"
    ],
    "m_Precision": 0,
    "m_PreviewExpanded": false,
    "m_PreviewMode": 0,
    "m_CustomColors": {
        "m_SerializableColors": []
    }
}

{
    "m_SGVersion": 0,
    "m_Type": "UnityEditor.ShaderGraph.Vector1MaterialSlot",
    "m_ObjectId": "b0bc655140a74fd28d578e772e283fb9",
    "m_Id": 2,
    "m_DisplayName": "Orthographic",
    "m_SlotType": 1,
    "m_Hidden": false,
    "m_ShaderOutputName": "Orthographic",
    "m_StageCapability": 3,
    "m_Value": 0.0,
    "m_DefaultValue": 0.0,
    "m_Labels": []
}

{
    "m_SGVersion": 0,
    "m_Type": "UnityEditor.ShaderGraph.Vector1MaterialSlot",
    "m_ObjectId": "b4f5884ad9a14f1193c70fe60bb94da6",
    "m_Id": 0,
    "m_DisplayName": "ObjThickness",
    "m_SlotType": 1,
    "m_Hidden": false,
    "m_ShaderOutputName": "Out",
    "m_StageCapability": 3,
    "m_Value": 0.0,
    "m_DefaultValue": 0.0,
    "m_Labels": []
}

{
    "m_SGVersion": 0,
    "m_Type": "UnityEditor.ShaderGraph.Vector1MaterialSlot",
    "m_ObjectId": "b5f7d52e75424a9c864cdd0c4c1cc657",
    "m_Id": 7,
    "m_DisplayName": "Height",
    "m_SlotType": 1,
    "m_Hidden": false,
    "m_ShaderOutputName": "Height",
    "m_StageCapability": 3,
    "m_Value": 1.0,
    "m_DefaultValue": 1.0,
    "m_Labels": []
}

{
    "m_SGVersion": 0,
    "m_Type": "UnityEditor.ShaderGraph.Vector1MaterialSlot",
    "m_ObjectId": "b6315fd9b2d34e9aa5843cfa0bf3ba1e",
    "m_Id": 10,
    "m_DisplayName": "maxLength",
    "m_SlotType": 0,
    "m_Hidden": false,
    "m_ShaderOutputName": "maxLength",
    "m_StageCapability": 3,
    "m_Value": 0.0,
    "m_DefaultValue": 0.0,
    "m_Labels": []
}

{
    "m_SGVersion": 0,
    "m_Type": "UnityEditor.ShaderGraph.PropertyNode",
    "m_ObjectId": "b85d7fb909634e31ae4d9e74e5a631cb",
    "m_Group": {
        "m_Id": ""
    },
    "m_Name": "Property",
    "m_DrawState": {
        "m_Expanded": true,
        "m_Position": {
            "serializedVersion": "2",
            "x": -2464.000244140625,
            "y": -182.00001525878907,
            "width": 191.000244140625,
            "height": 34.00001525878906
        }
    },
    "m_Slots": [
        {
            "m_Id": "f9dbea555d14408da9216b9f16095738"
        }
    ],
    "synonyms": [],
    "m_Precision": 0,
    "m_PreviewExpanded": false,
    "m_PreviewMode": 0,
    "m_CustomColors": {
        "m_SerializableColors": []
    },
    "m_Property": {
        "m_Id": "4a5ebc189e6d4fa59143f18f061919e3"
    }
}

{
    "m_SGVersion": 0,
    "m_Type": "UnityEditor.ShaderGraph.Vector1MaterialSlot",
    "m_ObjectId": "bcdf031fca7d46dfb4e01311947c104b",
    "m_Id": 6,
    "m_DisplayName": "B",
    "m_SlotType": 1,
    "m_Hidden": false,
    "m_ShaderOutputName": "B",
    "m_StageCapability": 2,
    "m_Value": 0.0,
    "m_DefaultValue": 0.0,
    "m_Labels": []
}

{
    "m_SGVersion": 0,
    "m_Type": "UnityEditor.ShaderGraph.DynamicVectorMaterialSlot",
    "m_ObjectId": "be130bd81621473287fcc38b78887dac",
    "m_Id": 1,
    "m_DisplayName": "Normal",
    "m_SlotType": 0,
    "m_Hidden": false,
    "m_ShaderOutputName": "Normal",
    "m_StageCapability": 3,
    "m_Value": {
        "x": 0.0,
        "y": 1.0,
        "z": 0.0,
        "w": 0.0
    },
    "m_DefaultValue": {
        "x": 0.0,
        "y": 0.0,
        "z": 0.0,
        "w": 0.0
    }
}

{
    "m_SGVersion": 0,
    "m_Type": "UnityEditor.ShaderGraph.BlockNode",
    "m_ObjectId": "c73f616e010a42b589e1aac7bca0b3cf",
    "m_Group": {
        "m_Id": ""
    },
    "m_Name": "SurfaceDescription.Alpha",
    "m_DrawState": {
        "m_Expanded": true,
        "m_Position": {
            "serializedVersion": "2",
            "x": 0.0,
            "y": 0.0,
            "width": 0.0,
            "height": 0.0
        }
    },
    "m_Slots": [
        {
            "m_Id": "57f395b772ed410d926fdac356038a03"
        }
    ],
    "synonyms": [],
    "m_Precision": 0,
    "m_PreviewExpanded": false,
    "m_PreviewMode": 0,
    "m_CustomColors": {
        "m_SerializableColors": []
    },
    "m_SerializedDescriptor": "SurfaceDescription.Alpha"
}

{
    "m_SGVersion": 0,
    "m_Type": "UnityEditor.ShaderGraph.StickyNoteData",
    "m_ObjectId": "c7ae4a4407c44c73ab53542d1d870588",
    "m_Title": "視線と法線の反射ベクトル",
    "m_Content": "Write something here",
    "m_TextSize": 0,
    "m_Theme": 1,
    "m_Position": {
        "serializedVersion": "2",
        "x": -1056.0,
        "y": 128.0,
        "width": 241.0,
        "height": 189.71185302734376
    },
    "m_Group": {
        "m_Id": ""
    }
}

{
    "m_SGVersion": 0,
    "m_Type": "UnityEditor.ShaderGraph.BlockNode",
    "m_ObjectId": "c858562e8bcc449bb2f19e2133b1fa69",
    "m_Group": {
        "m_Id": ""
    },
    "m_Name": "VertexDescription.Normal",
    "m_DrawState": {
        "m_Expanded": true,
        "m_Position": {
            "serializedVersion": "2",
            "x": 0.0,
            "y": 0.0,
            "width": 0.0,
            "height": 0.0
        }
    },
    "m_Slots": [
        {
            "m_Id": "c97c2b3c63374f1a8bacb74179337299"
        }
    ],
    "synonyms": [],
    "m_Precision": 0,
    "m_PreviewExpanded": false,
    "m_PreviewMode": 0,
    "m_CustomColors": {
        "m_SerializableColors": []
    },
    "m_SerializedDescriptor": "VertexDescription.Normal"
}

{
    "m_SGVersion": 0,
    "m_Type": "UnityEditor.ShaderGraph.SamplerStateMaterialSlot",
    "m_ObjectId": "c957e83a640f43708257d3a247682532",
    "m_Id": 3,
    "m_DisplayName": "Sampler",
    "m_SlotType": 0,
    "m_Hidden": false,
    "m_ShaderOutputName": "Sampler",
    "m_StageCapability": 3,
    "m_BareResource": false
}

{
    "m_SGVersion": 0,
    "m_Type": "UnityEditor.ShaderGraph.NormalMaterialSlot",
    "m_ObjectId": "c97c2b3c63374f1a8bacb74179337299",
    "m_Id": 0,
    "m_DisplayName": "Normal",
    "m_SlotType": 0,
    "m_Hidden": false,
    "m_ShaderOutputName": "Normal",
    "m_StageCapability": 1,
    "m_Value": {
        "x": 0.0,
        "y": 0.0,
        "z": 0.0
    },
    "m_DefaultValue": {
        "x": 0.0,
        "y": 0.0,
        "z": 0.0
    },
    "m_Labels": [],
    "m_Space": 0
}

{
    "m_SGVersion": 0,
    "m_Type": "UnityEditor.ShaderGraph.Vector1MaterialSlot",
    "m_ObjectId": "cb45556ef3bb4bf89f9b16f026c3c8dc",
    "m_Id": 5,
    "m_DisplayName": "G",
    "m_SlotType": 1,
    "m_Hidden": false,
    "m_ShaderOutputName": "G",
    "m_StageCapability": 2,
    "m_Value": 0.0,
    "m_DefaultValue": 0.0,
    "m_Labels": []
}

{
    "m_SGVersion": 0,
    "m_Type": "UnityEditor.ShaderGraph.Vector1MaterialSlot",
    "m_ObjectId": "cd2831470f9345e4b46dc96cf916f9bb",
    "m_Id": 1,
    "m_DisplayName": "X",
    "m_SlotType": 0,
    "m_Hidden": false,
    "m_ShaderOutputName": "X",
    "m_StageCapability": 3,
    "m_Value": 0.0,
    "m_DefaultValue": 0.0,
    "m_Labels": []
}

{
    "m_SGVersion": 0,
    "m_Type": "UnityEditor.ShaderGraph.BlockNode",
    "m_ObjectId": "ce6aec81df7e4d0b9ada89778fb68f00",
    "m_Group": {
        "m_Id": ""
    },
    "m_Name": "VertexDescription.Tangent",
    "m_DrawState": {
        "m_Expanded": true,
        "m_Position": {
            "serializedVersion": "2",
            "x": 0.0,
            "y": 0.0,
            "width": 0.0,
            "height": 0.0
        }
    },
    "m_Slots": [
        {
            "m_Id": "5d267d32c05c410caa3e61d82d7bf85a"
        }
    ],
    "synonyms": [],
    "m_Precision": 0,
    "m_PreviewExpanded": false,
    "m_PreviewMode": 0,
    "m_CustomColors": {
        "m_SerializableColors": []
    },
    "m_SerializedDescriptor": "VertexDescription.Tangent"
}

{
    "m_SGVersion": 1,
    "m_Type": "UnityEditor.Rendering.Universal.ShaderGraph.UniversalTarget",
    "m_ObjectId": "d43aec7987364dcb804a8772f22d407f",
    "m_ActiveSubTarget": {
        "m_Id": "38d8118ba8f749e2ae6dcc6f3976cc88"
    },
    "m_AllowMaterialOverride": false,
    "m_SurfaceType": 1,
    "m_ZTestMode": 4,
    "m_ZWriteControl": 0,
    "m_AlphaMode": 0,
    "m_RenderFace": 2,
    "m_AlphaClip": false,
    "m_CastShadows": true,
    "m_ReceiveShadows": true,
    "m_CustomEditorGUI": "",
    "m_SupportVFX": false
}

{
    "m_SGVersion": 1,
    "m_Type": "UnityEditor.ShaderGraph.Matrix4ShaderProperty",
    "m_ObjectId": "d45aad65e0354836a0816bf769ce67e0",
    "m_Guid": {
        "m_GuidSerialized": "13358861-a0c4-47fb-837a-34b8209ae09d"
    },
    "m_Name": "_ViewProjInv",
    "m_DefaultRefNameVersion": 1,
    "m_RefNameGeneratedByDisplayName": "_ViewProjInv",
    "m_DefaultReferenceName": "_ViewProjInv",
    "m_OverrideReferenceName": "",
    "m_GeneratePropertyBlock": false,
    "m_UseCustomSlotLabel": false,
    "m_CustomSlotLabel": "",
    "m_Precision": 0,
    "overrideHLSLDeclaration": false,
    "hlslDeclarationOverride": 2,
    "m_Hidden": false,
    "m_Value": {
        "e00": 1.0,
        "e01": 0.0,
        "e02": 0.0,
        "e03": 0.0,
        "e10": 0.0,
        "e11": 1.0,
        "e12": 0.0,
        "e13": 0.0,
        "e20": 0.0,
        "e21": 0.0,
        "e22": 1.0,
        "e23": 0.0,
        "e30": 0.0,
        "e31": 0.0,
        "e32": 0.0,
        "e33": 1.0
    }
}

{
    "m_SGVersion": 0,
    "m_Type": "UnityEditor.ShaderGraph.Vector3MaterialSlot",
    "m_ObjectId": "d4ec9e6536664d3bb09ae50b66c55e79",
    "m_Id": 0,
    "m_DisplayName": "Out",
    "m_SlotType": 1,
    "m_Hidden": false,
    "m_ShaderOutputName": "Out",
    "m_StageCapability": 3,
    "m_Value": {
        "x": 0.0,
        "y": 0.0,
        "z": 0.0
    },
    "m_DefaultValue": {
        "x": 0.0,
        "y": 0.0,
        "z": 0.0
    },
    "m_Labels": []
}

{
    "m_SGVersion": 0,
    "m_Type": "UnityEditor.ShaderGraph.PropertyNode",
    "m_ObjectId": "d6f895d0552042adb0dc082a06bd6a0e",
    "m_Group": {
        "m_Id": ""
    },
    "m_Name": "Property",
    "m_DrawState": {
        "m_Expanded": true,
        "m_Position": {
            "serializedVersion": "2",
            "x": -724.0,
            "y": -118.0,
            "width": 146.0,
            "height": 34.0
        }
    },
    "m_Slots": [
        {
            "m_Id": "b4f5884ad9a14f1193c70fe60bb94da6"
        }
    ],
    "synonyms": [],
    "m_Precision": 0,
    "m_PreviewExpanded": true,
    "m_PreviewMode": 0,
    "m_CustomColors": {
        "m_SerializableColors": []
    },
    "m_Property": {
        "m_Id": "9686ee8f011942f28b1f31b246f21e3f"
    }
}

{
    "m_SGVersion": 0,
    "m_Type": "UnityEditor.ShaderGraph.Vector1MaterialSlot",
    "m_ObjectId": "ddaaafdad5c64f13a9547454a883ce27",
    "m_Id": 3,
    "m_DisplayName": "Z",
    "m_SlotType": 0,
    "m_Hidden": false,
    "m_ShaderOutputName": "Z",
    "m_StageCapability": 3,
    "m_Value": 0.0,
    "m_DefaultValue": 0.0,
    "m_Labels": [
        "Z"
    ]
}

{
    "m_SGVersion": 0,
    "m_Type": "UnityEditor.ShaderGraph.Vector3MaterialSlot",
    "m_ObjectId": "de2e9de26fab434ab4aa0a870d3b0496",
    "m_Id": 0,
    "m_DisplayName": "Origin",
    "m_SlotType": 0,
    "m_Hidden": false,
    "m_ShaderOutputName": "Origin",
    "m_StageCapability": 3,
    "m_Value": {
        "x": 0.0,
        "y": 0.0,
        "z": 0.0
    },
    "m_DefaultValue": {
        "x": 0.0,
        "y": 0.0,
        "z": 0.0
    },
    "m_Labels": []
}

{
    "m_SGVersion": 0,
    "m_Type": "UnityEditor.ShaderGraph.Internal.Texture2DShaderProperty",
    "m_ObjectId": "de6b59f2b8a840f49c38320b7280bdad",
    "m_Guid": {
        "m_GuidSerialized": "0485f473-e93c-48c3-a707-8b49fb28a2e7"
    },
    "m_Name": "_NormalOnlyTexture",
    "m_DefaultRefNameVersion": 1,
    "m_RefNameGeneratedByDisplayName": "_NormalOnlyTexture",
    "m_DefaultReferenceName": "_NormalOnlyTexture",
    "m_OverrideReferenceName": "_NormalOnlyTexture",
    "m_GeneratePropertyBlock": false,
    "m_UseCustomSlotLabel": false,
    "m_CustomSlotLabel": "",
    "m_Precision": 0,
    "overrideHLSLDeclaration": false,
    "hlslDeclarationOverride": 0,
    "m_Hidden": false,
    "m_Value": {
        "m_SerializedTexture": "{\"texture\":{\"instanceID\":0}}",
        "m_Guid": ""
    },
    "isMainTexture": false,
    "useTilingAndOffset": false,
    "m_Modifiable": true,
    "m_DefaultType": 0
}

{
    "m_SGVersion": 0,
    "m_Type": "UnityEditor.ShaderGraph.Vector1MaterialSlot",
    "m_ObjectId": "e08d879837424fca9792594678a498d8",
    "m_Id": 11,
    "m_DisplayName": "Thickness",
    "m_SlotType": 0,
    "m_Hidden": false,
    "m_ShaderOutputName": "Thickness",
    "m_StageCapability": 3,
    "m_Value": 0.0,
    "m_DefaultValue": 0.0,
    "m_Labels": []
}

{
    "m_SGVersion": 0,
    "m_Type": "UnityEditor.ShaderGraph.ReflectionNode",
    "m_ObjectId": "e2467233976d462cbe341fb440d9b83d",
    "m_Group": {
        "m_Id": ""
    },
    "m_Name": "Reflection",
    "m_DrawState": {
        "m_Expanded": true,
        "m_Position": {
            "serializedVersion": "2",
            "x": -1034.0001220703125,
            "y": 175.99998474121095,
            "width": 207.99993896484376,
            "height": 302.00006103515627
        }
    },
    "m_Slots": [
        {
            "m_Id": "80dc64fa420949e4922f213a1b9fa955"
        },
        {
            "m_Id": "be130bd81621473287fcc38b78887dac"
        },
        {
            "m_Id": "7030e565132542d6b94f3bf1df679ae1"
        }
    ],
    "synonyms": [
        "mirror"
    ],
    "m_Precision": 0,
    "m_PreviewExpanded": false,
    "m_PreviewMode": 0,
    "m_CustomColors": {
        "m_SerializableColors": []
    }
}

{
    "m_SGVersion": 0,
    "m_Type": "UnityEditor.ShaderGraph.Vector1MaterialSlot",
    "m_ObjectId": "e3e72d2c25344ce98b676ff01d93398b",
    "m_Id": 4,
    "m_DisplayName": "R",
    "m_SlotType": 1,
    "m_Hidden": false,
    "m_ShaderOutputName": "R",
    "m_StageCapability": 2,
    "m_Value": 0.0,
    "m_DefaultValue": 0.0,
    "m_Labels": []
}

{
    "m_SGVersion": 0,
    "m_Type": "UnityEditor.ShaderGraph.Vector1MaterialSlot",
    "m_ObjectId": "e53cf951407f4745b4c196872beef260",
    "m_Id": 7,
    "m_DisplayName": "A",
    "m_SlotType": 1,
    "m_Hidden": false,
    "m_ShaderOutputName": "A",
    "m_StageCapability": 2,
    "m_Value": 0.0,
    "m_DefaultValue": 0.0,
    "m_Labels": []
}

{
    "m_SGVersion": 0,
    "m_Type": "UnityEditor.ShaderGraph.DynamicVectorMaterialSlot",
    "m_ObjectId": "e6591671441a46e99dcb3ec140d283a4",
    "m_Id": 1,
    "m_DisplayName": "B",
    "m_SlotType": 0,
    "m_Hidden": false,
    "m_ShaderOutputName": "B",
    "m_StageCapability": 3,
    "m_Value": {
        "x": 1.0,
        "y": 1.0,
        "z": 1.0,
        "w": 1.0
    },
    "m_DefaultValue": {
        "x": 0.0,
        "y": 0.0,
        "z": 0.0,
        "w": 0.0
    }
}

{
    "m_SGVersion": 1,
    "m_Type": "UnityEditor.ShaderGraph.CustomFunctionNode",
    "m_ObjectId": "e7c44638a49441d58a5eab71f1f614f2",
    "m_Group": {
        "m_Id": ""
    },
    "m_Name": "ReconstructWorldFromDepth (Custom Function)",
    "m_DrawState": {
        "m_Expanded": true,
        "m_Position": {
            "serializedVersion": "2",
            "x": -2002.0,
            "y": -236.0,
            "width": 320.0,
            "height": 326.0
        }
    },
    "m_Slots": [
        {
            "m_Id": "e98a7edc1de047e7a944173856885bd5"
        },
        {
            "m_Id": "addcdfc741af4897a53a46f4b4dd5840"
        },
        {
            "m_Id": "2e6c9962e5904821b983817d2fc12cff"
        },
        {
            "m_Id": "f525df343b1b4986b4e36542d9339127"
        }
    ],
    "synonyms": [
        "code",
        "HLSL"
    ],
    "m_Precision": 0,
    "m_PreviewExpanded": true,
    "m_PreviewMode": 0,
    "m_CustomColors": {
        "m_SerializableColors": []
    },
    "m_SourceType": 0,
    "m_FunctionName": "ReconstructWorldFromDepth",
    "m_FunctionSource": "424cc90b0b5069e4ca16fec8985d3b62",
    "m_FunctionBody": "Enter function body here..."
}

{
    "m_SGVersion": 0,
    "m_Type": "UnityEditor.ShaderGraph.Vector1MaterialSlot",
    "m_ObjectId": "e88d3343554b4b8eb33d304a06d71747",
    "m_Id": 0,
    "m_DisplayName": "Power",
    "m_SlotType": 1,
    "m_Hidden": false,
    "m_ShaderOutputName": "Out",
    "m_StageCapability": 3,
    "m_Value": 0.0,
    "m_DefaultValue": 0.0,
    "m_Labels": []
}

{
    "m_SGVersion": 0,
    "m_Type": "UnityEditor.ShaderGraph.Vector3MaterialSlot",
    "m_ObjectId": "e95d42b81f354e83865233b56b881477",
    "m_Id": 2,
    "m_DisplayName": "ReflectVec",
    "m_SlotType": 0,
    "m_Hidden": false,
    "m_ShaderOutputName": "ReflectVec",
    "m_StageCapability": 3,
    "m_Value": {
        "x": 0.0,
        "y": 0.0,
        "z": 0.0
    },
    "m_DefaultValue": {
        "x": 0.0,
        "y": 0.0,
        "z": 0.0
    },
    "m_Labels": []
}

{
    "m_SGVersion": 0,
    "m_Type": "UnityEditor.ShaderGraph.Vector3MaterialSlot",
    "m_ObjectId": "e98a7edc1de047e7a944173856885bd5",
    "m_Id": 0,
    "m_DisplayName": "worldPos",
    "m_SlotType": 1,
    "m_Hidden": false,
    "m_ShaderOutputName": "worldPos",
    "m_StageCapability": 3,
    "m_Value": {
        "x": 0.0,
        "y": 0.0,
        "z": 0.0
    },
    "m_DefaultValue": {
        "x": 0.0,
        "y": 0.0,
        "z": 0.0
    },
    "m_Labels": []
}

{
    "m_SGVersion": 0,
    "m_Type": "UnityEditor.ShaderGraph.BlockNode",
    "m_ObjectId": "ebcbfdbb378d44018719e85506e49bd6",
    "m_Group": {
        "m_Id": ""
    },
    "m_Name": "VertexDescription.Position",
    "m_DrawState": {
        "m_Expanded": true,
        "m_Position": {
            "serializedVersion": "2",
            "x": 0.0,
            "y": 0.0,
            "width": 0.0,
            "height": 0.0
        }
    },
    "m_Slots": [
        {
            "m_Id": "9cd37ee935bf4351bea93746e57ecd87"
        }
    ],
    "synonyms": [],
    "m_Precision": 0,
    "m_PreviewExpanded": false,
    "m_PreviewMode": 0,
    "m_CustomColors": {
        "m_SerializableColors": []
    },
    "m_SerializedDescriptor": "VertexDescription.Position"
}

{
    "m_SGVersion": 0,
    "m_Type": "UnityEditor.ShaderGraph.ColorRGBMaterialSlot",
    "m_ObjectId": "f04a3c6e75474051a7225b8ca262c6eb",
    "m_Id": 0,
    "m_DisplayName": "Base Color",
    "m_SlotType": 0,
    "m_Hidden": false,
    "m_ShaderOutputName": "BaseColor",
    "m_StageCapability": 2,
    "m_Value": {
        "x": 0.5,
        "y": 0.5,
        "z": 0.5
    },
    "m_DefaultValue": {
        "x": 0.0,
        "y": 0.0,
        "z": 0.0
    },
    "m_Labels": [],
    "m_ColorMode": 0,
    "m_DefaultColor": {
        "r": 0.5,
        "g": 0.5,
        "b": 0.5,
        "a": 1.0
    }
}

{
    "m_SGVersion": 0,
    "m_Type": "UnityEditor.ShaderGraph.DynamicVectorMaterialSlot",
    "m_ObjectId": "f3faa912b6704c1fb9d6d42e2c8b51c2",
    "m_Id": 1,
    "m_DisplayName": "Out",
    "m_SlotType": 1,
    "m_Hidden": false,
    "m_ShaderOutputName": "Out",
    "m_StageCapability": 3,
    "m_Value": {
        "x": 0.0,
        "y": 0.0,
        "z": 0.0,
        "w": 0.0
    },
    "m_DefaultValue": {
        "x": 0.0,
        "y": 0.0,
        "z": 0.0,
        "w": 0.0
    }
}

{
    "m_SGVersion": 0,
    "m_Type": "UnityEditor.ShaderGraph.Matrix4MaterialSlot",
    "m_ObjectId": "f525df343b1b4986b4e36542d9339127",
    "m_Id": 3,
    "m_DisplayName": "invVPMatrix",
    "m_SlotType": 0,
    "m_Hidden": false,
    "m_ShaderOutputName": "invVPMatrix",
    "m_StageCapability": 3,
    "m_Value": {
        "e00": 1.0,
        "e01": 0.0,
        "e02": 0.0,
        "e03": 0.0,
        "e10": 0.0,
        "e11": 1.0,
        "e12": 0.0,
        "e13": 0.0,
        "e20": 0.0,
        "e21": 0.0,
        "e22": 1.0,
        "e23": 0.0,
        "e30": 0.0,
        "e31": 0.0,
        "e32": 0.0,
        "e33": 1.0
    },
    "m_DefaultValue": {
        "e00": 1.0,
        "e01": 0.0,
        "e02": 0.0,
        "e03": 0.0,
        "e10": 0.0,
        "e11": 1.0,
        "e12": 0.0,
        "e13": 0.0,
        "e20": 0.0,
        "e21": 0.0,
        "e22": 1.0,
        "e23": 0.0,
        "e30": 0.0,
        "e31": 0.0,
        "e32": 0.0,
        "e33": 1.0
    }
}

{
    "m_SGVersion": 0,
    "m_Type": "UnityEditor.ShaderGraph.Vector1MaterialSlot",
    "m_ObjectId": "f65766a8e1f74a5d94fbf5b2ffb7aad4",
    "m_Id": 13,
    "m_DisplayName": "Power",
    "m_SlotType": 0,
    "m_Hidden": false,
    "m_ShaderOutputName": "Power",
    "m_StageCapability": 3,
    "m_Value": 0.0,
    "m_DefaultValue": 0.0,
    "m_Labels": []
}

{
    "m_SGVersion": 0,
    "m_Type": "UnityEditor.ShaderGraph.Texture2DMaterialSlot",
    "m_ObjectId": "f9dbea555d14408da9216b9f16095738",
    "m_Id": 0,
    "m_DisplayName": "_CameraDepthTexture",
    "m_SlotType": 1,
    "m_Hidden": false,
    "m_ShaderOutputName": "Out",
    "m_StageCapability": 3,
    "m_BareResource": false
}

